<?xml version="1.0" encoding="utf-8"?>
<!-- Generator: Adobe Illustrator 16.0.0, SVG Export Plug-In . SVG Version: 6.00 Build 0)  -->
<!DOCTYPE svg PUBLIC "-//W3C//DTD SVG 1.1//EN" "http://www.w3.org/Graphics/SVG/1.1/DTD/svg11.dtd">
<svg version="1.1" id="Capa_1" xmlns="http://www.w3.org/2000/svg" xmlns:xlink="http://www.w3.org/1999/xlink" x="0px" y="0px"
	 width="28.3467px" height="28.3467px" viewBox="0 0 28.3467 28.3467" style="enable-background:new 0 0 28.3467 28.3467;"
	 xml:space="preserve">
<g>
	
		<linearGradient id="SVGID_1_" gradientUnits="userSpaceOnUse" x1="284.5518" y1="311.999" x2="286.4557" y2="313.0982" gradientTransform="matrix(1 0 0 1 -270.5645 -297.4355)">
		<stop  offset="0" style="stop-color:#236568"/>
		<stop  offset="1" style="stop-color:#2F878A"/>
	</linearGradient>
	<path style="fill:url(#SVGID_1_);" d="M26.8223,12.5703c0.0029,0.083-0.04,0.1631-0.1416,0.2217L11.3828,21.623
		c-0.2178,0.125-0.5977,0.1113-0.8477-0.0342L0.2676,15.6611c-0.1719-0.0996-0.23-0.2334-0.1846-0.3486
		c-0.0078,0.0195-0.02,0.0381-0.0215,0.0586h-0.001v0.3936c-0.001,0.0977,0.0693,0.1992,0.207,0.2793l10.2676,5.9287
		c0.25,0.1436,0.6299,0.1602,0.8477,0.0342l15.2979-8.8311c0.0996-0.0586,0.1475-0.1357,0.1455-0.2168h0.001v-0.374
		C26.8271,12.5801,26.8223,12.5752,26.8223,12.5703z"/>
	<path style="fill:#06DAAE;" d="M26.791,12.4775c-0.0088-0.0156-0.0098-0.0313-0.0215-0.0469
		c-0.0352-0.0459-0.084-0.0898-0.1504-0.1279L16.3525,6.375c-0.125-0.0723-0.2832-0.1123-0.4365-0.1191
		c-0.1533-0.0059-0.3027,0.0215-0.4111,0.084L0.207,15.1719c-0.0508,0.0293-0.0854,0.0645-0.1099,0.1016
		c-0.0078,0.0127-0.0093,0.0264-0.0142,0.0391c-0.0454,0.1152,0.0127,0.249,0.1846,0.3486l10.2676,5.9277
		c0.25,0.1455,0.6299,0.1592,0.8477,0.0342l15.2979-8.8311c0.1016-0.0586,0.1445-0.1387,0.1416-0.2217
		C26.8213,12.5391,26.8066,12.5088,26.791,12.4775z"/>
	<path style="fill:#2F878A;" d="M16.1094,7.8086L2.751,15.5205l8.0273,4.6338l13.3584-7.7109L16.1094,7.8086z M10.1367,17.0957
		c-0.5,0.2871-1.3711,0.252-1.9463-0.0811c-0.5762-0.333-0.6387-0.8359-0.1396-1.124c0.498-0.2871,1.3691-0.252,1.9453,0.0811
		S10.6348,16.8076,10.1367,17.0957z M13.2246,15.8662c-1.8506-0.2256-3.2471-1.2559-3.1191-2.3037
		c0.127-1.0469,1.7305-1.7119,3.5811-1.4863c1.8516,0.2246,3.248,1.2568,3.1201,2.3037S15.0762,16.0918,13.2246,15.8662z
		 M18.8369,12.0723c-0.498,0.2881-1.3691,0.252-1.9453-0.0811s-0.6377-0.835-0.1396-1.123s1.3691-0.252,1.9453,0.0811
		C19.2734,11.2813,19.3369,11.7842,18.8369,12.0723z"/>
	<g>
		
			<linearGradient id="SVGID_2_" gradientUnits="userSpaceOnUse" x1="291.6816" y1="312.4082" x2="298.652" y2="307.3831" gradientTransform="matrix(1 0 0 1 -270.5645 -297.4355)">
			<stop  offset="0" style="stop-color:#CC8241"/>
			<stop  offset="1" style="stop-color:#FFC538"/>
		</linearGradient>
		<path style="fill:url(#SVGID_2_);" d="M28.2666,11.4346c0.0166,1.3604-1.8057,2.667-4.2168,2.96
			c-2.5068,0.3066-4.6787-0.5957-4.8516-2.0137c-0.0176-0.1445,0-0.2881,0.0244-0.4307c-0.0215,0.125-0.0518,0.25-0.042,0.373
			l-0.0068,0.001v1.7324h0.0059c0.0352,0.5684,0.3975,1.1074,1.1045,1.5156c1.6445,0.9492,4.5156,0.8311,6.4131-0.2656
			c1.0547-0.6074,1.584-1.3887,1.5684-2.125l0.0029-0.001v-1.7451h-0.002V11.4346z"/>
		<path style="fill:#FFC538;" d="M28.1992,11.0273c-0.0059-0.0186-0.0107-0.0371-0.0166-0.0557
			c-0.0449-0.1289-0.1064-0.2549-0.1875-0.376c-0.0088-0.0146-0.0195-0.0283-0.0303-0.043
			c-0.0869-0.123-0.1904-0.2422-0.3164-0.3555c-0.0088-0.0068-0.0176-0.0137-0.0264-0.0215
			c-0.1328-0.1152-0.2842-0.2246-0.458-0.3262c-0.0029-0.001-0.0039-0.0029-0.0059-0.0039
			c-0.0049-0.0029-0.0117-0.0049-0.0166-0.0078c-0.1904-0.1084-0.3984-0.2021-0.6191-0.2822
			c-0.0381-0.0146-0.0781-0.0254-0.1172-0.0391c-0.1963-0.0654-0.4004-0.1221-0.6123-0.167
			c-0.0625-0.0127-0.127-0.0225-0.1914-0.0342c-0.1992-0.0352-0.4023-0.0635-0.6104-0.0811
			c-0.084-0.0068-0.1699-0.0088-0.2559-0.0127c-0.1924-0.0098-0.3877-0.0137-0.584-0.0088
			c-0.1182,0.0039-0.2383,0.0137-0.3584,0.0234c-0.124,0.0088-0.2432,0.0078-0.3691,0.0234
			c-0.0479,0.0059-0.0918,0.0186-0.1396,0.0254c-0.1523,0.0215-0.2988,0.0508-0.4463,0.0801
			c-0.1387,0.0273-0.2773,0.0518-0.4141,0.0869c-0.1631,0.041-0.3174,0.0928-0.4717,0.1436
			c-0.1133,0.0361-0.2275,0.0693-0.3369,0.1113c-0.1631,0.0625-0.3135,0.1348-0.4629,0.207
			c-0.0908,0.043-0.1836,0.083-0.2705,0.1309c-0.0439,0.0234-0.0947,0.041-0.1377,0.0664c-0.0898,0.0518-0.1523,0.1113-0.2344,0.166
			c-0.1045,0.0684-0.2061,0.1387-0.2988,0.2109c-0.1172,0.0918-0.2256,0.1875-0.3242,0.2861
			c-0.0625,0.0625-0.1182,0.126-0.1719,0.1895c-0.0918,0.1074-0.1787,0.2158-0.2471,0.3281
			c-0.0352,0.0576-0.0576,0.1162-0.0859,0.1748c-0.0586,0.1211-0.1162,0.2422-0.1465,0.3662
			c-0.0098,0.0391-0.0068,0.0781-0.0127,0.1172c-0.0244,0.1426-0.042,0.2861-0.0244,0.4307
			c0.1729,1.418,2.3447,2.3203,4.8516,2.0137c2.4111-0.293,4.2334-1.5996,4.2168-2.96c-0.001-0.0537,0.0156-0.1064,0.0088-0.1602
			C28.2646,11.1875,28.2246,11.1094,28.1992,11.0273z"/>
		
			<linearGradient id="SVGID_3_" gradientUnits="userSpaceOnUse" x1="300.1484" y1="307.3672" x2="289.5966" y2="311.1728" gradientTransform="matrix(1 0 0 1 -270.5645 -297.4355)">
			<stop  offset="0" style="stop-color:#CC8241"/>
			<stop  offset="1" style="stop-color:#FFC538"/>
		</linearGradient>
		<path style="fill:url(#SVGID_3_);" d="M26.3271,10.7578c-1.2461-0.7188-3.4238-0.6289-4.8623,0.2021
			c-0.6807,0.3926-1.0723,0.8809-1.167,1.3633c0.0732,0.3799,0.3408,0.7344,0.8184,1.0107
			c1.2461,0.7197,3.4229,0.6289,4.8613-0.2012c0.6904-0.3984,1.0771-0.8955,1.1641-1.3838
			C27.0645,11.377,26.7969,11.0293,26.3271,10.7578z"/>
		<linearGradient id="SVGID_4_" gradientUnits="userSpaceOnUse" x1="23.2061" y1="11.7813" x2="26.4804" y2="9.8908">
			<stop  offset="0" style="stop-color:#CC8241"/>
			<stop  offset="1" style="stop-color:#FFC538"/>
		</linearGradient>
		<path style="fill:url(#SVGID_4_);" d="M27.1445,11.3428c-0.0146-0.0811-0.0498-0.1592-0.082-0.2373
			c-0.0195-0.0449-0.0293-0.0908-0.0537-0.1348c-0.0479-0.084-0.1182-0.1621-0.1885-0.2412
			c-0.0303-0.0332-0.0498-0.0693-0.083-0.1016c-0.1143-0.1084-0.25-0.21-0.4102-0.3027c-0.9346-0.54-2.3936-0.624-3.6709-0.2813
			c-0.4258,0.1143-0.832,0.2754-1.1914,0.4834c-0.2051,0.1182-0.376,0.2461-0.5283,0.3789
			c-0.0488,0.042-0.0859,0.0859-0.1289,0.1289c-0.0938,0.0938-0.1777,0.1885-0.2461,0.2871
			c-0.0352,0.0488-0.0664,0.0996-0.0947,0.1504c-0.0547,0.0977-0.0947,0.1963-0.125,0.2959
			c-0.0137,0.0459-0.0313,0.0928-0.04,0.1396c-0.0225,0.126-0.0244,0.251-0.0049,0.374c0.002,0.0156-0.0039,0.0322-0.001,0.0479
			c0-0.002,0.002-0.0049,0.002-0.0068c0.0947-0.4824,0.4863-0.9707,1.167-1.3633c1.4385-0.8311,3.6162-0.9209,4.8623-0.2021
			c0.4697,0.2715,0.7373,0.6191,0.8145,0.9912c0.001,0.0049,0.0039,0.0098,0.0049,0.0146c0.002-0.0117-0.001-0.0225,0.001-0.0332
			c0.0127-0.0811,0.0078-0.1602,0.0039-0.2402C27.1484,11.4414,27.1543,11.3906,27.1445,11.3428z"/>
	</g>
</g>
</svg>
