<?xml version="1.0" encoding="utf-8"?>
<!-- Generator: Adobe Illustrator 16.0.0, SVG Export Plug-In . SVG Version: 6.00 Build 0)  -->
<!DOCTYPE svg PUBLIC "-//W3C//DTD SVG 1.1//EN" "http://www.w3.org/Graphics/SVG/1.1/DTD/svg11.dtd">
<svg version="1.1" id="Capa_1" xmlns="http://www.w3.org/2000/svg" xmlns:xlink="http://www.w3.org/1999/xlink" x="0px" y="0px"
	 width="60px" height="24px" viewBox="0 0 60 24" enable-background="new 0 0 60 24" xml:space="preserve">
<g id="ATLAS">
	<g>
		<g>
			<path fill="#C31F39" d="M38.2471,10.0264c-0.0068-0.021-0.0273-0.0347-0.0498-0.0347h-1.2471
				c-0.0225,0-0.042,0.0137-0.0498,0.0347l-2.4941,6.7617c-0.0059,0.0166-0.0039,0.0342,0.0059,0.0488
				c0.0107,0.0146,0.0273,0.0225,0.0449,0.0225h1.1328c0.0234,0,0.043-0.0137,0.0508-0.0352l0.5234-1.457h2.7383l0.5234,1.457
				c0.0068,0.0215,0.0273,0.0352,0.0488,0.0352h1.248c0.0176,0,0.0332-0.0078,0.043-0.0225s0.0127-0.0322,0.0059-0.0488
				L38.2471,10.0264z M37.5273,11.4692c0.0732,0.2993,0.1572,0.5737,0.2695,0.8682l0.7666,2.0513h-2.0723l0.7568-2.021
				C37.3594,12.0674,37.4561,11.7607,37.5273,11.4692z M37.8477,12.3188L37.8477,12.3188L37.8477,12.3188L37.8477,12.3188z"/>
			<path fill="#C31F39" d="M43.9102,11.7744h-1.2969V9.9546c0-0.0166-0.0078-0.0317-0.0205-0.042s-0.0303-0.0137-0.0459-0.0093
				l-1.0928,0.29c-0.0234,0.0063-0.04,0.0273-0.04,0.0518v1.5293h-0.9258c-0.0137,0-0.0273,0.0059-0.0371,0.0156
				c-0.0098,0.0103-0.0156,0.0239-0.0156,0.0381v0.8311c0,0.0146,0.0059,0.0283,0.0156,0.0381s0.0234,0.0156,0.0371,0.0156h0.9258
				v2.6611c0.001,0.5605,0.082,0.9551,0.3154,1.2139c0.2354,0.2588,0.6084,0.3613,1.1611,0.3613
				c0.3447,0,0.7285-0.0498,1.0303-0.1104c0.0244-0.0049,0.042-0.0264,0.042-0.0518v-0.8828c0-0.0156-0.0078-0.0313-0.0195-0.041
				c-0.0137-0.0098-0.0313-0.0137-0.0469-0.0098c-0.1895,0.0488-0.4336,0.0781-0.6563,0.0781
				c-0.2529-0.001-0.3965-0.0479-0.4844-0.1699c-0.0918-0.125-0.1328-0.3506-0.1328-0.7188v-2.3301h1.2871
				c0.0137,0,0.0273-0.0059,0.0371-0.0156s0.0156-0.0234,0.0156-0.0381v-0.8311c0-0.0142-0.0059-0.0278-0.0156-0.0376
				C43.9375,11.7803,43.9238,11.7744,43.9102,11.7744z"/>
			<path fill="#C31F39" d="M46.0625,9.4404H44.96c-0.0137,0-0.0283,0.0059-0.0381,0.0156
				c-0.0098,0.0103-0.0156,0.0239-0.0156,0.0381v7.3125c0,0.0137,0.0059,0.0273,0.0156,0.0371s0.0244,0.0156,0.0381,0.0156h1.1025
				c0.0146,0,0.0273-0.0059,0.0381-0.0156c0.0098-0.0098,0.0156-0.0234,0.0156-0.0371V9.4941c0-0.0142-0.0059-0.0278-0.0156-0.0381
				C46.0908,9.4463,46.0762,9.4404,46.0625,9.4404z"/>
			<path fill="#C31F39" d="M51.208,13.4102c0-0.5166-0.1104-0.9551-0.4287-1.2627c-0.3184-0.3066-0.834-0.4731-1.624-0.4731
				c-0.667,0.0005-1.3115,0.1416-1.8223,0.334c-0.0225,0.0088-0.0361,0.0317-0.0342,0.0562l0.1035,0.9121
				c0.002,0.0176,0.0127,0.0332,0.0293,0.041c0.0156,0.0078,0.0352,0.0078,0.0508-0.002c0.4209-0.2539,1.0342-0.3936,1.498-0.3926
				c0.3955,0,0.6484,0.0791,0.8008,0.2227s0.2168,0.3613,0.2168,0.665v0.2676c-0.9043,0.0068-1.6484,0.1719-2.1738,0.4805
				c-0.5371,0.3135-0.8457,0.7861-0.8457,1.376c0,0.4082,0.1455,0.7432,0.4063,0.9727c0.2617,0.2305,0.6328,0.3525,1.0801,0.3525
				l0,0c0.7246,0,1.3184-0.3418,1.6289-0.834c-0.0176,0.2158-0.0234,0.4512-0.0234,0.6807c0,0.0137,0.0059,0.0273,0.0156,0.0371
				s0.0244,0.0156,0.0381,0.0156h1.0615c0.0146,0,0.0283-0.0059,0.0391-0.0156c0.0098-0.0117,0.0156-0.0254,0.0137-0.0391
				c-0.0195-0.4199-0.0303-0.9307-0.0303-1.3604V13.4102z M49.998,14.6064v0.0459c0.001,0.3438-0.1211,0.6855-0.334,0.9395
				c-0.2119,0.2539-0.5098,0.4199-0.8691,0.4199c-0.207,0-0.3691-0.0566-0.4775-0.1523c-0.1094-0.0967-0.1699-0.2324-0.1709-0.4053
				c0.002-0.2002,0.0771-0.4014,0.3516-0.5664C48.7656,14.7275,49.2324,14.6113,49.998,14.6064z"/>
			<path fill="#C31F39" d="M55.3301,14.3613c-0.333-0.3145-0.8184-0.4414-1.2148-0.582c-0.1973-0.0703-0.3721-0.1445-0.4922-0.2393
				c-0.1211-0.0967-0.1875-0.2061-0.1895-0.3701c0.002-0.1758,0.0664-0.3105,0.2031-0.4102
				c0.1377-0.0977,0.3535-0.1572,0.6504-0.1572c0.3242,0,0.6816,0.0498,0.9854,0.1377c0.0156,0.0049,0.0322,0.002,0.0459-0.0078
				s0.0215-0.0254,0.0225-0.041l0.0303-0.8716c0.002-0.0269-0.0176-0.0503-0.0449-0.0542
				c-0.3105-0.0508-0.6631-0.0913-0.9668-0.0913c-0.7031,0-1.2441,0.1724-1.6104,0.4595c-0.3662,0.2876-0.5557,0.6904-0.5557,1.1367
				c0,0.4424,0.1465,0.7451,0.3682,0.9561c0.3311,0.3164,0.8135,0.4287,1.2041,0.5605c0.1963,0.0645,0.3691,0.1348,0.4883,0.2285
				c0.1182,0.0957,0.1855,0.2061,0.1865,0.3789c-0.001,0.1865-0.0908,0.332-0.2568,0.4395c-0.165,0.1064-0.4082,0.168-0.6992,0.168
				c-0.3857,0-0.7832-0.0693-1.0996-0.1582c-0.0156-0.0039-0.0322-0.001-0.0449,0.0078c-0.0137,0.0098-0.0215,0.0254-0.0225,0.042
				l-0.0303,0.9111c-0.001,0.0264,0.0176,0.0488,0.043,0.0547c0.3223,0.0605,0.707,0.1006,1.0918,0.1006
				c0.6943,0,1.2617-0.1719,1.6592-0.4678c0.3975-0.2949,0.6201-0.7158,0.6201-1.1982
				C55.7021,14.8691,55.5527,14.5713,55.3301,14.3613z"/>
		</g>
		<g>
			<path fill="#776A57" d="M20.6182,21.5391h-1.2407v-2.1885c0-0.0029-0.0015-0.0068-0.0039-0.0088s-0.0054-0.0039-0.0088-0.0039
				h-0.3389c-0.0029,0-0.0063,0.002-0.0088,0.0039s-0.0034,0.0059-0.0034,0.0088v2.499c0,0.0039,0.001,0.0059,0.0034,0.0088
				s0.0059,0.0029,0.0088,0.0029h1.5923c0.0034,0,0.0068,0,0.0093-0.0029c0.002-0.0029,0.0034-0.0049,0.0034-0.0088v-0.2979
				c0-0.0029-0.0015-0.0068-0.0034-0.0088C20.625,21.541,20.6216,21.5391,20.6182,21.5391z"/>
			<path fill="#776A57" d="M22.646,21.6191c-0.019,0.0039-0.0366,0.0059-0.0537,0.0078c-0.0166,0.002-0.0313,0.002-0.0444,0.002
				c-0.0405,0-0.063-0.0098-0.0723-0.0234c-0.0107-0.0156-0.0171-0.0391-0.0171-0.0693v-1.0498
				c0.0005-0.1758-0.0688-0.3076-0.2051-0.3906c-0.1362-0.084-0.3125-0.125-0.5278-0.125c-0.187,0-0.3516,0.0449-0.4937,0.1338
				c-0.1445,0.0908-0.2188,0.2529-0.2241,0.4814c0,0.002,0.001,0.0059,0.0034,0.0088c0.0024,0.002,0.0054,0.0029,0.0093,0.0029
				h0.2856c0.0063,0,0.0117-0.0039,0.0122-0.0107c0.0112-0.0928,0.0356-0.1621,0.0708-0.207c0.0635-0.083,0.1719-0.125,0.3296-0.126
				c0.1367,0,0.2402,0.0244,0.3115,0.0693c0.0698,0.0449,0.105,0.1152,0.1055,0.2178c0,0.0498-0.0068,0.0879-0.019,0.1113
				c-0.0225,0.0459-0.064,0.0723-0.1313,0.082l-0.4883,0.0605c-0.1733,0.0215-0.3145,0.0801-0.4219,0.1758
				c-0.1089,0.0947-0.1626,0.2305-0.1626,0.4014c0,0.1572,0.0552,0.2891,0.1646,0.3936c0.1094,0.1055,0.251,0.1572,0.4224,0.1572
				c0.0005,0,0.0005,0,0.0005,0c0.1426,0,0.2734-0.0303,0.3921-0.0908c0.1074-0.0557,0.1924-0.1201,0.2549-0.1943
				c0.0107,0.0605,0.0273,0.1084,0.0503,0.1455c0.0498,0.0781,0.1318,0.1182,0.2402,0.1172c0.0435,0,0.0776-0.001,0.104-0.0039
				c0.0259-0.0039,0.0625-0.0127,0.1104-0.0264c0.0054-0.002,0.0093-0.0068,0.0093-0.0127v-0.2266
				c0-0.0029-0.0015-0.0068-0.0049-0.0098C22.6533,21.6191,22.6494,21.6182,22.646,21.6191z M22.1265,20.9453v0.2246
				c0,0.1836-0.0811,0.3125-0.2476,0.3945c-0.0996,0.0488-0.2017,0.0732-0.3076,0.0732c-0.0859,0-0.1592-0.0244-0.2217-0.0732
				c-0.0615-0.0488-0.0918-0.1133-0.0923-0.1992c0.0005-0.1133,0.0449-0.1914,0.1357-0.2441
				c0.0532-0.0293,0.1357-0.0527,0.2456-0.0674l0.1851-0.0244c0.0571-0.0059,0.1152-0.0176,0.1748-0.0332
				C22.0488,20.9824,22.0913,20.9648,22.1265,20.9453z"/>
			<path fill="#776A57" d="M25.501,20.3066c-0.0645-0.0986-0.1582-0.1787-0.2803-0.2402c-0.1226-0.0615-0.249-0.0918-0.3794-0.0918
				c-0.2578,0-0.4683,0.0918-0.6284,0.2773s-0.2397,0.4268-0.2397,0.7217c0,0.2988,0.0791,0.5342,0.2383,0.7021
				c0.1587,0.167,0.3535,0.251,0.5825,0.251c0.0928,0,0.1763-0.0088,0.251-0.0273c0.1382-0.0322,0.2544-0.0947,0.3486-0.1865
				c0.0562-0.0537,0.1069-0.1221,0.1523-0.2051c0.0449-0.084,0.0718-0.1592,0.0801-0.2285
				c0.0005-0.0039-0.0005-0.0078-0.0029-0.0098s-0.0059-0.0039-0.0093-0.0039h-0.3013c-0.0059,0-0.0107,0.0039-0.0122,0.0088
				c-0.022,0.0791-0.0581,0.1494-0.1099,0.208c-0.0923,0.1035-0.2144,0.1553-0.3701,0.1553
				c-0.1675-0.001-0.2876-0.0537-0.3662-0.1631c-0.0771-0.1064-0.1196-0.248-0.127-0.4258h1.312
				c0.0034,0,0.0063-0.001,0.0088-0.0039c0.0024-0.002,0.0039-0.0059,0.0039-0.0078c0-0.1855-0.0093-0.3184-0.0273-0.4043
				C25.604,20.5088,25.563,20.4004,25.501,20.3066z M24.334,20.7803c0.0078-0.1475,0.0566-0.2686,0.1465-0.3662
				c0.0923-0.0986,0.2051-0.1475,0.3413-0.1475c0.1914,0.001,0.3242,0.0713,0.4058,0.2139c0.042,0.0752,0.0703,0.1748,0.083,0.2998
				H24.334z"/>
			<path fill="#776A57" d="M27.9941,19.9746c-0.1167,0-0.2222,0.0234-0.3159,0.0713c-0.0884,0.0459-0.166,0.1143-0.2324,0.2041
				c-0.0386-0.0713-0.082-0.127-0.1294-0.166c-0.0913-0.0742-0.2114-0.1094-0.3584-0.1094c-0.1309,0-0.248,0.0352-0.3511,0.1055
				c-0.0542,0.0371-0.1128,0.0947-0.1772,0.1709v-0.2236c0-0.0039-0.0015-0.0059-0.0039-0.0088s-0.0054-0.0029-0.0088-0.0029
				h-0.3027c-0.0034,0-0.0063,0-0.0088,0.0029s-0.0039,0.0049-0.0039,0.0088v1.8223c0,0.0039,0.0015,0.0059,0.0039,0.0088
				s0.0054,0.0029,0.0088,0.0029h0.3062c0.0034,0,0.0068,0,0.0093-0.0029c0.002-0.0029,0.0034-0.0059,0.0034-0.0088v-0.9668
				c0-0.2324,0.0474-0.3916,0.1382-0.4766c0.0928-0.0879,0.1943-0.1309,0.3071-0.1309c0.124,0,0.2046,0.04,0.249,0.1211
				c0.0278,0.0527,0.0425,0.1406,0.0425,0.2637v1.1895c0,0.0039,0.0015,0.0059,0.0039,0.0088s0.0054,0.0029,0.0088,0.0029h0.3115
				c0.0034,0,0.0063,0,0.0088-0.0029s0.0039-0.0059,0.0039-0.0088v-1.0605c0-0.1855,0.043-0.3164,0.126-0.3926
				c0.0845-0.0791,0.1846-0.1182,0.3018-0.1182c0.085,0,0.1563,0.0225,0.2144,0.0654c0.0562,0.042,0.0859,0.1211,0.0859,0.2402
				v1.2656c0,0.0039,0.0015,0.0059,0.0039,0.0088s0.0054,0.0029,0.0088,0.0029h0.3184c0.0029,0,0.0063,0,0.0083-0.0029
				c0.0029-0.0029,0.0039-0.0059,0.0039-0.0088v-1.2129c0-0.1621-0.0239-0.293-0.0728-0.3906
				C28.4146,20.0645,28.2417,19.9736,27.9941,19.9746z"/>
			<path fill="#776A57" d="M29.9434,19.9707c-0.1421,0-0.2661,0.0352-0.3721,0.1035c-0.0649,0.041-0.1255,0.0967-0.1816,0.166
				v-0.2041c0-0.0029-0.001-0.0068-0.0034-0.0088s-0.0059-0.0039-0.0093-0.0039h-0.2988c-0.0039,0-0.0068,0.002-0.0093,0.0039
				c-0.0029,0.002-0.0039,0.0059-0.0039,0.0088v2.54c0,0.0029,0.0015,0.0059,0.0039,0.0078
				c0.002,0.0029,0.0054,0.0039,0.0093,0.0039h0.3057c0.0034,0,0.0068-0.001,0.0093-0.0039
				c0.0024-0.002,0.0034-0.0049,0.0034-0.0078v-0.8965c0.0591,0.0703,0.1133,0.1201,0.1631,0.1514
				c0.0957,0.0615,0.2144,0.0928,0.3535,0.0928c0.1782,0,0.335-0.0557,0.4692-0.165c0.2114-0.1729,0.3169-0.4619,0.3169-0.8604
				c0-0.2949-0.0723-0.5254-0.2197-0.6865C30.3335,20.0518,30.1533,19.9707,29.9434,19.9707z M30.3594,20.9277
				c0,0.2363-0.0474,0.4121-0.1396,0.5283c-0.0933,0.1172-0.2075,0.1748-0.3472,0.1748c-0.2085-0.001-0.3472-0.0898-0.4258-0.2744
				c-0.041-0.0967-0.062-0.2148-0.062-0.3545c0-0.1738,0.021-0.3164,0.0625-0.4277c0.0776-0.208,0.2163-0.3086,0.4253-0.3096
				c0.207,0.001,0.3462,0.0967,0.4248,0.293C30.3389,20.6602,30.3594,20.7832,30.3594,20.9277z"/>
			<path fill="#776A57" d="M32.0234,19.9824c-0.0332-0.0039-0.0557-0.0059-0.0693-0.0068c-0.0146-0.001-0.0244-0.001-0.0303-0.001
				c-0.125,0-0.2354,0.0449-0.3301,0.1348c-0.0713,0.0664-0.1221,0.127-0.1543,0.1797v-0.2617c0-0.0039-0.001-0.0059-0.0039-0.0088
				c-0.002-0.0029-0.0049-0.0029-0.0078-0.0029h-0.291c-0.0039,0-0.0068,0-0.0098,0.0029c-0.002,0.0029-0.0039,0.0049-0.0039,0.0088
				v1.8223c0,0.0039,0.002,0.0059,0.0039,0.0088c0.0029,0.0029,0.0059,0.0029,0.0098,0.0029h0.3057c0.0029,0,0.0068,0,0.0088-0.0029
				s0.0039-0.0059,0.0039-0.0088v-1.0479c0-0.126,0.04-0.2373,0.1211-0.335c0.0801-0.0957,0.1943-0.1445,0.3457-0.1445
				c0.0176,0,0.0352,0.001,0.0488,0.002c0.0156,0.001,0.0313,0.0039,0.0488,0.0068c0.0039,0.001,0.0078-0.001,0.0107-0.0029
				s0.0049-0.0059,0.0049-0.0098v-0.3223C32.0352,19.9883,32.0303,19.9834,32.0234,19.9824z"/>
			<path fill="#776A57" d="M33.7871,20.3066c-0.0654-0.0986-0.1582-0.1787-0.2813-0.2402s-0.248-0.0918-0.3789-0.0918
				c-0.2578,0-0.4688,0.0918-0.6289,0.2773s-0.2402,0.4268-0.2393,0.7217c-0.001,0.2988,0.0791,0.5342,0.2383,0.7021
				c0.1592,0.167,0.3535,0.251,0.582,0.251c0.0928,0,0.1768-0.0088,0.251-0.0273c0.1387-0.0322,0.2549-0.0947,0.3496-0.1865
				c0.0547-0.0537,0.1055-0.1221,0.1514-0.2051c0.0459-0.084,0.0723-0.1592,0.0811-0.2285c0-0.0039-0.001-0.0078-0.0039-0.0098
				c-0.002-0.002-0.0059-0.0039-0.0098-0.0039h-0.3008c-0.0059,0-0.0098,0.0039-0.0117,0.0088
				c-0.0215,0.0791-0.0586,0.1494-0.1094,0.208c-0.0928,0.1035-0.2148,0.1553-0.3711,0.1553
				c-0.167-0.001-0.2871-0.0537-0.3652-0.1631c-0.0781-0.1064-0.1211-0.248-0.127-0.4258h1.3115
				c0.0029,0,0.0068-0.001,0.0088-0.0039c0.002-0.002,0.0039-0.0059,0.0039-0.0078c0-0.1855-0.0098-0.3184-0.0273-0.4043
				C33.8896,20.5088,33.8486,20.4004,33.7871,20.3066z M32.6191,20.7803c0.0078-0.1475,0.0566-0.2686,0.1465-0.3662
				c0.0928-0.0986,0.2051-0.1475,0.3418-0.1475c0.1914,0.001,0.3242,0.0713,0.4053,0.2139c0.042,0.0752,0.0703,0.1748,0.083,0.2998
				H32.6191z"/>
			<path fill="#776A57" d="M35.6387,20.9424c-0.0801-0.0518-0.2305-0.1025-0.4551-0.1572l-0.207-0.0488
				c-0.0889-0.0215-0.1563-0.0459-0.2002-0.0723c-0.0771-0.0469-0.1143-0.1055-0.1143-0.1797c0-0.0684,0.0283-0.1221,0.0859-0.1641
				c0.0586-0.042,0.1445-0.0645,0.2617-0.0645c0.1768,0,0.2969,0.04,0.3652,0.1162c0.042,0.0537,0.0664,0.1143,0.0723,0.1807
				c0,0.0059,0.0059,0.0117,0.0117,0.0117h0.29c0.0068,0,0.0127-0.0059,0.0127-0.0127c0-0.0039,0-0.0068,0-0.0107
				c0-0.1172-0.0391-0.2266-0.1152-0.3271c-0.126-0.165-0.332-0.2471-0.6113-0.2471c-0.2148,0-0.3877,0.0547-0.5156,0.1641
				c-0.1289,0.1074-0.1934,0.252-0.1934,0.4277c-0.001,0.1504,0.0693,0.2695,0.2061,0.3535
				c0.0771,0.0488,0.1943,0.0918,0.3525,0.1309l0.248,0.0615c0.1309,0.0322,0.2207,0.0615,0.2627,0.0859
				c0.0674,0.0391,0.0986,0.0928,0.0986,0.167c0,0.0996-0.041,0.1699-0.125,0.2188c-0.0859,0.0469-0.1855,0.0723-0.2988,0.0723
				c-0.1934,0-0.3252-0.0488-0.4004-0.1445c-0.041-0.0508-0.0664-0.127-0.0762-0.2266c0-0.0078-0.0059-0.0117-0.0117-0.0117h-0.2949
				c-0.0039,0-0.0059,0.001-0.0088,0.0039c-0.0029,0.002-0.0039,0.0059-0.0039,0.0088c0.0088,0.1846,0.0713,0.3389,0.1865,0.4648
				c0.1191,0.127,0.3164,0.1885,0.5928,0.1885c0.2568,0,0.4502-0.0596,0.5781-0.1797c0.126-0.1211,0.1904-0.2646,0.1904-0.4297
				C35.8223,21.1514,35.7617,21.0225,35.6387,20.9424z"/>
			<path fill="#776A57" d="M37.8643,21.6191c-0.0186,0.0039-0.0361,0.0059-0.0537,0.0078c-0.0166,0.002-0.0313,0.002-0.0449,0.002
				c-0.0391,0-0.0625-0.0098-0.0713-0.0234c-0.0107-0.0156-0.0176-0.0391-0.0176-0.0693v-1.0498
				c0.001-0.1758-0.0693-0.3076-0.2041-0.3906c-0.1367-0.084-0.3125-0.125-0.5293-0.125c-0.1855,0-0.3516,0.0449-0.4932,0.1338
				c-0.1436,0.0908-0.2188,0.2529-0.2236,0.4814c0,0.002,0.001,0.0059,0.0029,0.0088c0.0029,0.002,0.0059,0.0029,0.0088,0.0029
				h0.2861c0.0068,0,0.0127-0.0039,0.0127-0.0107c0.0117-0.0928,0.0352-0.1621,0.0703-0.207c0.0635-0.083,0.1719-0.125,0.3301-0.126
				c0.1367,0,0.2402,0.0244,0.3105,0.0693s0.1055,0.1152,0.1055,0.2178c0,0.0498-0.0059,0.0879-0.0195,0.1113
				c-0.0215,0.0459-0.0625,0.0723-0.1309,0.082l-0.4883,0.0605c-0.1729,0.0215-0.3145,0.0801-0.4219,0.1758
				c-0.1084,0.0947-0.1621,0.2305-0.1621,0.4014c0,0.1572,0.0547,0.2891,0.1641,0.3936c0.1094,0.1055,0.252,0.1572,0.4229,0.1572
				h0.001c0.1426,0,0.2734-0.0303,0.3916-0.0908c0.1064-0.0557,0.1924-0.1201,0.2549-0.1943
				c0.0107,0.0605,0.0273,0.1084,0.0508,0.1455c0.0488,0.0781,0.1309,0.1182,0.2402,0.1172c0.043,0,0.0771-0.001,0.1035-0.0039
				c0.0254-0.0039,0.0625-0.0127,0.1104-0.0264c0.0049-0.001,0.0088-0.0068,0.0088-0.0127v-0.2266
				c0-0.0029-0.002-0.0068-0.0039-0.0098C37.8721,21.6191,37.8682,21.6182,37.8643,21.6191z M37.3457,20.9453v0.2246
				c-0.001,0.1836-0.082,0.3125-0.248,0.3945c-0.0996,0.0488-0.2021,0.0732-0.3076,0.0732c-0.0859,0-0.1592-0.0244-0.2217-0.0732
				s-0.0918-0.1133-0.0928-0.1992c0.001-0.1133,0.0449-0.1914,0.1357-0.2441c0.0537-0.0293,0.1357-0.0527,0.2461-0.0674
				l0.1855-0.0244c0.0566-0.0059,0.1152-0.0176,0.1738-0.0332C37.2676,20.9824,37.3105,20.9648,37.3457,20.9453z"/>
			<path fill="#776A57" d="M40.9443,21.6191c-0.0195,0.0039-0.0371,0.0059-0.0537,0.0078s-0.0313,0.002-0.0449,0.002
				c-0.041,0-0.0625-0.0098-0.0723-0.0234c-0.0107-0.0156-0.0176-0.0391-0.0176-0.0693v-1.0498
				c0.001-0.1758-0.0684-0.3076-0.2041-0.3906c-0.1357-0.084-0.3125-0.125-0.5283-0.125c-0.1875,0-0.3516,0.0449-0.4941,0.1338
				c-0.1436,0.0908-0.2188,0.2529-0.2236,0.4814c0,0.002,0.001,0.0059,0.0029,0.0088c0.0029,0.002,0.0059,0.0029,0.0098,0.0029
				h0.2852c0.0068,0,0.0127-0.0039,0.0137-0.0107c0.0107-0.0928,0.0352-0.1621,0.0703-0.207c0.0625-0.083,0.1719-0.125,0.3291-0.126
				c0.1367,0,0.2412,0.0244,0.3115,0.0693s0.1055,0.1152,0.1055,0.2178c0,0.0498-0.0068,0.0879-0.0195,0.1113
				c-0.0215,0.0459-0.0635,0.0723-0.1309,0.082l-0.4883,0.0605c-0.1738,0.0215-0.3145,0.0801-0.4219,0.1758
				c-0.1084,0.0947-0.1621,0.2305-0.1621,0.4014c0,0.1572,0.0547,0.2891,0.1641,0.3936c0.1094,0.1055,0.252,0.1572,0.4219,0.1572
				c0.001,0,0.001,0,0.002,0c0.1426,0,0.2734-0.0303,0.3916-0.0908c0.1074-0.0557,0.1924-0.1201,0.2549-0.1943
				c0.0098,0.0605,0.0273,0.1084,0.0498,0.1455c0.0498,0.0781,0.1318,0.1182,0.2402,0.1172c0.0439,0,0.0781-0.001,0.1045-0.0039
				c0.0254-0.0039,0.0625-0.0127,0.1104-0.0264c0.0049-0.001,0.0088-0.0068,0.0088-0.0127v-0.2266
				c0-0.0029-0.002-0.0068-0.0039-0.0098C40.9512,21.6191,40.9473,21.6182,40.9443,21.6191z M40.4248,20.9453v0.2246
				c-0.001,0.1836-0.0811,0.3125-0.248,0.3945c-0.0996,0.0488-0.2021,0.0732-0.3076,0.0732c-0.0859,0-0.1592-0.0244-0.2217-0.0732
				c-0.0615-0.0488-0.0918-0.1133-0.0918-0.1992c0-0.1133,0.0439-0.1914,0.1357-0.2441c0.0527-0.0293,0.1348-0.0527,0.2461-0.0674
				l0.1836-0.0244c0.0576-0.0059,0.1162-0.0176,0.1758-0.0332C40.3467,20.9824,40.3896,20.9648,40.4248,20.9453z M40.2852,20.7461
				L40.2852,20.7461L40.2852,20.7461L40.2852,20.7461z"/>
			<path fill="#776A57" d="M44.2676,19.9746c-0.1172,0-0.2227,0.0234-0.3154,0.0713c-0.0889,0.0459-0.166,0.1143-0.2324,0.2041
				c-0.04-0.0713-0.082-0.127-0.1299-0.166c-0.0918-0.0742-0.2109-0.1094-0.3584-0.1094c-0.1299,0-0.248,0.0352-0.3506,0.1055
				c-0.0547,0.0371-0.1133,0.0947-0.1777,0.1709v-0.2236c0-0.0039-0.002-0.0059-0.0039-0.0088s-0.0059-0.0029-0.0088-0.0029h-0.3027
				c-0.0029,0-0.0068,0-0.0088,0.0029s-0.0039,0.0049-0.0039,0.0088v1.8223c0,0.0039,0.002,0.0059,0.0039,0.0088
				s0.0059,0.0029,0.0088,0.0029h0.3057c0.0039,0,0.0068,0,0.0098-0.0029c0.002-0.0029,0.0039-0.0059,0.0039-0.0088v-0.9668
				c-0.001-0.2324,0.0469-0.3916,0.1377-0.4766c0.0928-0.0879,0.1943-0.1309,0.3066-0.1309c0.124,0,0.2051,0.04,0.249,0.1211
				c0.0273,0.0527,0.043,0.1406,0.043,0.2637v1.1895c0,0.0039,0.002,0.0059,0.0039,0.0088s0.0059,0.0029,0.0088,0.0029h0.3115
				c0.0029,0,0.0059,0,0.0088-0.0029s0.0029-0.0059,0.0029-0.0088v-1.0605c0-0.1855,0.043-0.3164,0.127-0.3926
				c0.084-0.0791,0.1846-0.1172,0.3018-0.1182c0.085,0.001,0.1553,0.0225,0.2139,0.0654c0.0566,0.042,0.0859,0.1211,0.0859,0.2402
				v1.2656c0,0.0039,0.002,0.0059,0.0039,0.0088s0.0059,0.0029,0.0098,0.0029h0.3174c0.0029,0,0.0068,0,0.0088-0.0029
				s0.0039-0.0059,0.0039-0.0088v-1.2129c0-0.1621-0.0234-0.293-0.0723-0.3906C44.6885,20.0645,44.5146,19.9736,44.2676,19.9746z"/>
			<path fill="#776A57" d="M45.6875,20.0234H45.377c-0.0039,0-0.0068,0.001-0.0098,0.0039c-0.002,0.002-0.0029,0.0059-0.0029,0.0088
				v1.8135c0,0.0039,0.001,0.0059,0.0029,0.0088c0.0029,0.0029,0.0059,0.0029,0.0098,0.0029h0.3105c0.0039,0,0.0078,0,0.0098-0.0029
				s0.0039-0.0059,0.0039-0.0088v-1.8135c0-0.0029-0.002-0.0068-0.0039-0.0088S45.6914,20.0234,45.6875,20.0234z"/>
			<path fill="#776A57" d="M45.377,19.71h0.3105c0.0039,0,0.0078-0.001,0.0098-0.0029c0.002-0.0029,0.0039-0.0059,0.0039-0.0098
				v-0.3467c0-0.0029-0.002-0.0068-0.0039-0.0088s-0.0059-0.0039-0.0098-0.0039H45.377c-0.0039,0-0.0068,0.002-0.0098,0.0039
				c-0.002,0.002-0.0029,0.0059-0.0029,0.0088v0.3467c0,0.0039,0.001,0.0068,0.0029,0.0098
				C45.3701,19.709,45.373,19.71,45.377,19.71z"/>
			<path fill="#776A57" d="M49.1719,19.9746c-0.1152,0-0.2207,0.0234-0.3145,0.0713c-0.0889,0.0459-0.166,0.1143-0.2324,0.2041
				c-0.0391-0.0713-0.082-0.127-0.1299-0.166c-0.0908-0.0742-0.2119-0.1094-0.3584-0.1094c-0.1309,0-0.248,0.0352-0.3516,0.1055
				c-0.0537,0.0371-0.1133,0.0947-0.1777,0.1709v-0.2236c0-0.0039-0.001-0.0059-0.002-0.0088
				c-0.0029-0.0029-0.0068-0.0029-0.0098-0.0029H47.293c-0.0039,0-0.0068,0-0.0098,0.0029
				c-0.002,0.0029-0.0029,0.0049-0.0029,0.0088v1.8223c0,0.0039,0.001,0.0059,0.0029,0.0088
				c0.0029,0.0029,0.0059,0.0029,0.0098,0.0029h0.3066c0.0029,0,0.0059,0,0.0088-0.0029c0.002-0.0029,0.0029-0.0059,0.0029-0.0088
				v-0.9668c0-0.2324,0.0479-0.3916,0.1387-0.4766c0.0928-0.0879,0.1943-0.1309,0.3066-0.1309c0.124,0,0.2051,0.04,0.249,0.1211
				c0.0283,0.0527,0.042,0.1406,0.042,0.2637v1.1895c0,0.0039,0.002,0.0059,0.0039,0.0088
				c0.0029,0.0029,0.0059,0.0029,0.0098,0.0029h0.3105c0.0039,0,0.0078,0,0.0098-0.0029s0.0039-0.0059,0.0039-0.0088v-1.0605
				c0-0.1855,0.043-0.3164,0.125-0.3926c0.0859-0.0791,0.1846-0.1182,0.3027-0.1182c0.085,0,0.1553,0.0225,0.2139,0.0654
				c0.0557,0.042,0.0859,0.1211,0.0859,0.2402v1.2656c0,0.0039,0.001,0.0059,0.0039,0.0088s0.0059,0.0029,0.0088,0.0029h0.3184
				c0.0029,0,0.0059,0,0.0088-0.0029s0.0039-0.0059,0.0039-0.0088v-1.2129c-0.001-0.1621-0.0244-0.293-0.0732-0.3906
				C49.5938,20.0645,49.4199,19.9736,49.1719,19.9746z"/>
			<path fill="#776A57" d="M51.6934,20.3066c-0.0645-0.0986-0.1582-0.1787-0.2803-0.2402s-0.249-0.0918-0.3799-0.0918
				c-0.2578,0-0.4688,0.0918-0.6289,0.2773c-0.1592,0.1855-0.2393,0.4268-0.2393,0.7217c0,0.2988,0.0791,0.5342,0.2393,0.7021
				c0.1582,0.167,0.3535,0.251,0.582,0.251c0.0928,0,0.1758-0.0088,0.251-0.0273c0.1377-0.0322,0.2549-0.0947,0.3486-0.1865
				c0.0557-0.0537,0.1064-0.1221,0.1523-0.2051c0.0449-0.084,0.0723-0.1592,0.0801-0.2285c0-0.0039-0.001-0.0078-0.0029-0.0098
				c-0.0029-0.002-0.0059-0.0039-0.0098-0.0039h-0.3008c-0.0059,0-0.0107,0.0039-0.0127,0.0088
				c-0.0215,0.0791-0.0576,0.1494-0.1094,0.208c-0.0918,0.1035-0.2148,0.1553-0.3701,0.1553
				c-0.167-0.001-0.2881-0.0537-0.3662-0.1631c-0.0771-0.1064-0.1201-0.248-0.127-0.4258h1.3125c0.002,0,0.0059-0.001,0.0078-0.0039
				c0.0029-0.002,0.0039-0.0059,0.0039-0.0078c0-0.1855-0.0078-0.3184-0.0273-0.4043
				C51.7969,20.5088,51.7559,20.4004,51.6934,20.3066z M51.0137,20.2666c0.1914,0.001,0.3242,0.0713,0.4063,0.2148
				c0.042,0.0742,0.0703,0.1738,0.083,0.2988h-0.9766c0.0078-0.1475,0.0566-0.2686,0.1465-0.3652
				C50.7656,20.3154,50.8779,20.2666,51.0137,20.2666z"/>
			<path fill="#776A57" d="M53.7861,19.3291h-0.2939c-0.0039,0-0.0068,0.001-0.0088,0.0039
				c-0.0029,0.0029-0.0039,0.0059-0.0039,0.0088v0.8848c-0.0605-0.0703-0.1152-0.1221-0.165-0.1543
				c-0.0967-0.0605-0.2148-0.0898-0.3555-0.0898c-0.2539,0-0.4531,0.0996-0.5898,0.2969s-0.2051,0.4297-0.2051,0.6973
				c0,0.2852,0.0752,0.5166,0.2256,0.6895c0.1494,0.1738,0.3291,0.2607,0.5342,0.2607c0.127,0,0.2412-0.0254,0.3398-0.0771
				c0.0898-0.0449,0.168-0.1162,0.2344-0.2119v0.2119c0,0.0029,0.001,0.0059,0.0039,0.0088
				c0.002,0.0029,0.0059,0.0029,0.0088,0.0029h0.2754c0.0029,0,0.0068,0,0.0088-0.0029s0.0039-0.0059,0.0039-0.0088v-2.5078
				c0-0.0039-0.002-0.0059-0.0039-0.0088S53.7891,19.3291,53.7861,19.3291z M52.5127,20.96c0-0.2275,0.0479-0.3975,0.1396-0.5127
				c0.0938-0.1152,0.2139-0.1719,0.3643-0.1719c0.1338,0,0.2451,0.0527,0.3369,0.1611c0.0908,0.1064,0.1377,0.2744,0.1367,0.5029
				c0.001,0.2266-0.0449,0.3984-0.1328,0.5166c-0.0898,0.1201-0.2002,0.1787-0.3379,0.1787
				c-0.1777-0.001-0.3047-0.0645-0.3848-0.1914C52.5537,21.3145,52.5127,21.1533,52.5127,20.96z"/>
			<path fill="#776A57" d="M54.6426,20.0234h-0.3115c-0.0029,0-0.0068,0.002-0.0088,0.0039s-0.0039,0.0059-0.0039,0.0088v1.8135
				c0,0.0039,0.002,0.0059,0.0039,0.0088s0.0059,0.0029,0.0088,0.0029h0.3115c0.0029,0,0.0068,0,0.0088-0.0029
				c0.0029-0.0029,0.0029-0.0059,0.0029-0.0088v-1.8135c0-0.0029,0-0.0068-0.0029-0.0088
				C54.6494,20.0254,54.6455,20.0234,54.6426,20.0234z"/>
			<path fill="#776A57" d="M54.3311,19.71h0.3115c0.0029,0,0.0059-0.001,0.0088-0.0029c0.0029-0.0029,0.0029-0.0059,0.0029-0.0098
				v-0.3467c0-0.0029,0-0.0068-0.0029-0.0088s-0.0059-0.0039-0.0088-0.0039h-0.3115c-0.0029,0-0.0068,0.002-0.0088,0.0039
				s-0.0039,0.0059-0.0039,0.0088v0.3467c0,0.0039,0.002,0.0068,0.0039,0.0098C54.3242,19.709,54.3281,19.71,54.3311,19.71z"/>
			<path fill="#776A57" d="M56.6719,19.3291h-0.2939c-0.0029,0-0.0068,0.001-0.0088,0.0039
				c-0.0029,0.0029-0.0039,0.0059-0.0039,0.0088v0.8848c-0.0605-0.0703-0.1152-0.1221-0.166-0.1543
				c-0.0957-0.0605-0.2148-0.0898-0.3555-0.0898c-0.2539,0-0.4521,0.0996-0.5889,0.2969s-0.2051,0.4297-0.2041,0.6973
				c-0.001,0.2852,0.0742,0.5156,0.2246,0.6895c0.1484,0.1738,0.3281,0.2607,0.5342,0.2607c0.1279,0,0.2412-0.0254,0.3398-0.0762
				c0.0889-0.0459,0.167-0.1162,0.2344-0.2129v0.2119c0,0.0039,0.001,0.0059,0.0039,0.0088
				c0.002,0.0029,0.0049,0.0029,0.0088,0.0029h0.2754c0.0039,0,0.0059,0,0.0088-0.0029s0.0039-0.0059,0.0039-0.0088v-2.5078
				c0-0.0039-0.001-0.0059-0.0039-0.0088S56.6758,19.3291,56.6719,19.3291z M55.3984,20.96c0-0.2275,0.0469-0.3975,0.1406-0.5127
				s0.2129-0.1719,0.3633-0.1719c0.1348,0,0.2451,0.0527,0.3379,0.1611c0.0898,0.1064,0.1367,0.2744,0.1367,0.5029
				c0,0.2266-0.0449,0.3984-0.1328,0.5176c-0.0898,0.1191-0.2012,0.1777-0.3379,0.1777c-0.1797-0.001-0.3057-0.0645-0.3867-0.1914
				C55.4395,21.3145,55.3984,21.1533,55.3984,20.96z"/>
			<path fill="#776A57" d="M58.8633,21.6221c-0.0039-0.0029-0.0068-0.0039-0.0107-0.0029
				c-0.0186,0.0039-0.0361,0.0059-0.0537,0.0078c-0.0166,0.002-0.0313,0.002-0.0449,0.002c-0.04,0-0.0625-0.0098-0.0713-0.0234
				c-0.0107-0.0156-0.0176-0.0391-0.0176-0.0684v-1.0498c0.001-0.1758-0.0684-0.3086-0.2041-0.3916
				c-0.1367-0.084-0.3125-0.125-0.5293-0.125c-0.1865,0-0.3506,0.0449-0.4932,0.1348c-0.1436,0.0898-0.2178,0.252-0.2236,0.4805
				c0,0.002,0.001,0.0059,0.0039,0.0088c0.002,0.0029,0.0049,0.0029,0.0078,0.0029h0.2861c0.0068,0,0.0127-0.0039,0.0127-0.0107
				c0.0117-0.0928,0.0352-0.1621,0.0703-0.207c0.0635-0.083,0.1719-0.125,0.3301-0.126c0.1367,0,0.2402,0.0244,0.3105,0.0693
				c0.0703,0.0459,0.1055,0.1162,0.1055,0.2178c0,0.0498-0.0068,0.0879-0.0186,0.1113c-0.0225,0.0459-0.0635,0.0723-0.1318,0.082
				l0,0l-0.4883,0.0605c-0.1729,0.0225-0.3145,0.0801-0.4219,0.1758c-0.1074,0.0947-0.1621,0.2305-0.1621,0.4014
				c0,0.1572,0.0547,0.29,0.1641,0.3936c0.1094,0.1055,0.252,0.1582,0.4229,0.1582c0.001,0,0.001,0,0.001,0
				c0.1426,0,0.2734-0.0313,0.3926-0.0918c0.1064-0.0557,0.1914-0.1191,0.2539-0.1934c0.0107,0.0596,0.0273,0.1074,0.0508,0.1445
				c0.0488,0.0781,0.1309,0.1182,0.2402,0.1172c0.043,0,0.0781-0.001,0.1035-0.0039c0.0264-0.0039,0.0625-0.0127,0.1104-0.0264
				c0.0049-0.001,0.0088-0.0068,0.0088-0.0127v-0.2266C58.8672,21.6279,58.8652,21.625,58.8633,21.6221z M58.334,20.9453v0.2246
				c-0.001,0.1836-0.082,0.3125-0.248,0.3945c-0.0996,0.0488-0.2021,0.0732-0.3086,0.0732c-0.0859,0-0.1582-0.0244-0.2207-0.0732
				s-0.0918-0.1133-0.0928-0.1992c0.001-0.1133,0.0449-0.1914,0.1357-0.2441c0.0527-0.0293,0.1357-0.0527,0.2461-0.0674
				l0.1846-0.0244c0.0576-0.0059,0.1152-0.0176,0.1748-0.0332C58.2559,20.9824,58.2988,20.9648,58.334,20.9453z"/>
		</g>
		<g>
			<path fill="#776A57" d="M3.7695,13.6719c-0.4614-0.4082-1.1431-0.6016-1.7051-0.8477c-0.5645-0.248-0.9961-0.5361-0.9961-1.1265
				c0.002-0.7197,0.5352-1.1934,1.5571-1.1968c0.3965,0,0.8345,0.0698,1.2114,0.1885c0.0107,0.0034,0.022,0.002,0.0308-0.0044
				c0.0093-0.0063,0.0146-0.0161,0.0156-0.0269l0.04-0.6011c0.001-0.0181-0.0112-0.0342-0.0293-0.0376
				C3.5024,9.9492,3.1094,9.8989,2.6758,9.8989c-0.7275,0-1.3101,0.1973-1.7109,0.5303c-0.4014,0.333-0.6191,0.8027-0.6191,1.3384
				c-0.0005,0.5352,0.2061,0.9043,0.5132,1.1758c0.46,0.4053,1.1392,0.5977,1.6997,0.8477c0.562,0.25,0.9927,0.5459,0.9932,1.1523
				c-0.0005,0.4814-0.1895,0.8057-0.4893,1.0156c-0.3008,0.209-0.7173,0.3008-1.1685,0.3008c-0.4653,0-0.9736-0.1094-1.3706-0.248
				c-0.0107-0.0039-0.0225-0.002-0.0317,0.0039s-0.0151,0.0166-0.0156,0.0273l-0.04,0.6406
				c-0.001,0.0176,0.0093,0.0322,0.0254,0.0371c0.375,0.1113,0.8589,0.1719,1.3726,0.1719l0,0c0.7529,0,1.3652-0.207,1.79-0.5664
				c0.4248-0.3604,0.6602-0.873,0.6597-1.4727C4.2847,14.3164,4.0771,13.9434,3.7695,13.6719z"/>
			<path fill="#776A57" d="M7.3936,11.6821c-0.686-0.0005-1.2368,0.2808-1.6123,0.7495s-0.5776,1.123-0.5776,1.8711
				c0,0.8809,0.1992,1.5293,0.5908,1.958c0.3911,0.4287,0.9712,0.6318,1.7173,0.6318c0.0005,0,0.0015,0,0.002,0
				c0.625,0,1.1709-0.1113,1.626-0.293c0.0146-0.0059,0.0239-0.0215,0.022-0.0371L9.1016,16.002
				c-0.001-0.0117-0.0078-0.0215-0.0181-0.0273s-0.0225-0.0059-0.0332-0.001c-0.354,0.1777-0.9121,0.3174-1.4268,0.3174
				c-0.5488-0.001-0.9653-0.1484-1.2476-0.4727c-0.2827-0.3232-0.4341-0.8301-0.4341-1.5547c0-0.0566,0.001-0.1162,0.0029-0.1758
				h3.3423c0.0176,0,0.0322-0.0137,0.0347-0.0313c0.0205-0.1426,0.0205-0.2656,0.0205-0.3359c0-0.541-0.1416-1.0508-0.4575-1.4258
				C8.5684,11.9189,8.0776,11.6816,7.3936,11.6821z M7.3535,12.2339c0.7778,0.0024,1.2446,0.519,1.2471,1.2798
				c0,0.0039,0,0.0078,0,0.0117H5.9932C6.1431,12.7295,6.6431,12.2354,7.3535,12.2339z"/>
			<path fill="#776A57" d="M14.8296,11.7622h-1.6899c-0.2593-0.0498-0.4624-0.0801-0.7246-0.0801
				c-0.6738,0-1.2192,0.2207-1.5957,0.5757c-0.377,0.3555-0.584,0.8438-0.5835,1.373c-0.001,0.6357,0.228,1.1484,0.7036,1.459
				c-0.3242,0.1699-0.5039,0.46-0.5034,0.7852c-0.0005,0.3145,0.1763,0.5654,0.4604,0.7227
				c-0.4624,0.2598-0.8413,0.7207-0.8413,1.3516c-0.0005,0.4805,0.21,0.8604,0.5776,1.1133
				c0.3682,0.2539,0.8911,0.3848,1.522,0.3848c0.7524,0,1.4053-0.1943,1.8726-0.5225c0.4668-0.3271,0.7476-0.792,0.7476-1.3262
				c0.0005-0.4336-0.1514-0.792-0.4434-1.0381c-0.2915-0.2461-0.7188-0.3809-1.2651-0.3809h-1.022
				c-0.3076,0.001-0.5342-0.0352-0.6782-0.1055s-0.2065-0.166-0.208-0.3086c0.0005-0.1719,0.1045-0.3359,0.3579-0.4443
				c0.1943,0.0498,0.4795,0.0889,0.729,0.0889c0.7275,0,1.2788-0.2109,1.647-0.5566c0.3687-0.3477,0.5522-0.8281,0.5522-1.3623
				c0-0.4873-0.1724-0.9004-0.4575-1.1572h0.8428c0.0093,0,0.0186-0.0034,0.0254-0.0103c0.0063-0.0063,0.0103-0.0156,0.0103-0.0249
				v-0.501c0-0.0093-0.0039-0.0186-0.0103-0.0254C14.8481,11.7661,14.8389,11.7622,14.8296,11.7622z M12.375,12.2441
				c0.4346,0,0.772,0.123,1.002,0.3467s0.355,0.5518,0.355,0.9697s-0.1367,0.7373-0.3774,0.9551
				c-0.2412,0.2168-0.5898,0.332-1.0195,0.332c-0.4448,0-0.791-0.1133-1.0254-0.3281c-0.2344-0.2158-0.3613-0.5352-0.3618-0.959
				C10.9502,12.7969,11.4688,12.2466,12.375,12.2441z M10.7578,17.8389c-0.0005-0.4209,0.2949-0.7891,0.7441-1.0264h1.394
				c0.396,0,0.689,0.082,0.8799,0.2295c0.1914,0.1475,0.2866,0.3584,0.2871,0.6367c-0.0005,0.3438-0.1631,0.6318-0.4692,0.8379
				s-0.7578,0.3291-1.3291,0.3291c-0.4307,0-0.8105-0.0879-1.0791-0.2568C10.917,18.4189,10.7583,18.1719,10.7578,17.8389z"/>
			<path fill="#776A57" d="M19.8716,11.7622h-0.6309c-0.0098,0-0.019,0.0039-0.0254,0.0103
				c-0.0068,0.0068-0.0103,0.0156-0.0103,0.0254v2.3838c0,0.6211-0.1641,1.1563-0.4414,1.5361
				c-0.2783,0.3799-0.6675,0.6025-1.126,0.6025c-0.3892,0-0.6265-0.1182-0.7734-0.334c-0.1475-0.2148-0.2031-0.5391-0.2031-0.9531
				v-3.2354c0-0.0093-0.0039-0.0186-0.0103-0.0254c-0.0068-0.0063-0.0161-0.0103-0.0254-0.0103h-0.6309
				c-0.0098,0-0.0186,0.0039-0.0254,0.0103c-0.0068,0.0068-0.0103,0.0161-0.0103,0.0254v3.4658
				c0,0.4512,0.0879,0.8594,0.3271,1.1582c0.2388,0.2988,0.6279,0.4814,1.2109,0.4805c0.001,0,0.002,0,0.0024,0
				c0.8188,0,1.438-0.4209,1.7544-1.0859c-0.0396,0.3027-0.0591,0.6836-0.0591,0.9609c0,0.0098,0.0039,0.0176,0.0103,0.0254
				c0.0068,0.0059,0.0156,0.0098,0.0254,0.0098h0.6411c0.0093,0,0.0186-0.0039,0.0249-0.0098
				c0.0068-0.0068,0.0107-0.0156,0.0107-0.0254v-4.9795c0-0.0093-0.0039-0.0186-0.0107-0.0249
				C19.8901,11.7661,19.8809,11.7622,19.8716,11.7622z"/>
			<path fill="#776A57" d="M23.8848,11.6826c-0.0825-0.0103-0.1616-0.0146-0.2383-0.0146
				c-0.8037-0.0005-1.2651,0.5239-1.4966,1.1035c0.0503-0.3506,0.0732-0.707,0.0732-0.9736c0-0.0093-0.0039-0.0186-0.0103-0.0254
				c-0.0068-0.0063-0.0161-0.0103-0.0254-0.0103h-0.6411c-0.0093,0-0.0186,0.0039-0.0254,0.0103
				c-0.0063,0.0068-0.0103,0.0156-0.0103,0.0254v4.9795c0,0.0088,0.0039,0.0176,0.0103,0.0244
				c0.0068,0.0068,0.0161,0.0107,0.0254,0.0107h0.6313c0.0093,0,0.0181-0.0039,0.0249-0.0107s0.0103-0.0156,0.0103-0.0244V14.793
				c0-0.791,0.1138-1.4072,0.3413-1.8223c0.2285-0.4141,0.563-0.6279,1.0254-0.6289c0.084,0,0.1724,0.0068,0.2656,0.022
				c0.0098,0.0015,0.02-0.0015,0.0278-0.0073c0.0078-0.0068,0.0127-0.0161,0.0132-0.0259l0.0298-0.6113
				C23.917,11.7007,23.9033,11.6846,23.8848,11.6826z"/>
			<path fill="#776A57" d="M26.5513,11.6821c-0.7559-0.0005-1.3511,0.3027-1.7544,0.7827
				c-0.4033,0.4795-0.6152,1.1348-0.6152,1.8379c0,0.877,0.2114,1.5254,0.5947,1.9541c0.3833,0.4297,0.9365,0.6357,1.6045,0.6357
				l0,0c0.0005,0,0.001,0,0.001,0c0.7407,0,1.3379-0.3037,1.7471-0.791c0.4092-0.4863,0.6318-1.1563,0.6318-1.8896
				c0-0.9326-0.2549-1.5674-0.6616-1.9673C27.6924,11.8442,27.1382,11.6816,26.5513,11.6821z M28.0386,14.2422
				c-0.0034,1.4512-0.7466,2.0566-1.5479,2.0586c-0.5073-0.001-0.897-0.1855-1.165-0.5322
				c-0.2676-0.3467-0.4121-0.8604-0.4121-1.5166c0.0024-1.3789,0.7656-1.9858,1.5674-1.9878
				c0.5176,0.0005,0.9023,0.1855,1.1626,0.5229C27.9038,13.125,28.0386,13.6211,28.0386,14.2422z"/>
			<path fill="#776A57" d="M32.2666,14.3887c-0.3662-0.293-0.9023-0.3887-1.3428-0.5332c-0.2207-0.0723-0.416-0.1553-0.5537-0.2764
				c-0.1372-0.1221-0.2202-0.2773-0.2207-0.5088c0.0005-0.252,0.0952-0.4512,0.2827-0.5928c0.188-0.1416,0.4731-0.2236,0.854-0.2231
				c0.3457-0.0005,0.7139,0.0688,1.042,0.1685c0.0098,0.0029,0.0215,0.001,0.0303-0.0049c0.0088-0.0063,0.0146-0.0166,0.0146-0.0273
				l0.0313-0.561c0-0.0176-0.0117-0.0327-0.0293-0.0366c-0.3223-0.0708-0.6855-0.1108-0.998-0.1108
				c-0.623,0-1.1064,0.1538-1.436,0.4146c-0.3306,0.2598-0.5039,0.6279-0.5034,1.0439c-0.0005,0.4551,0.1621,0.7559,0.4058,0.958
				c0.3647,0.3037,0.8989,0.3975,1.3384,0.5361c0.2188,0.0703,0.4141,0.1504,0.5508,0.2686s0.2188,0.2705,0.2197,0.501
				c-0.001,0.2734-0.1279,0.4883-0.3516,0.6406c-0.2236,0.1504-0.5449,0.2354-0.9248,0.2354c-0.3872,0-0.7954-0.0693-1.1133-0.1592
				c-0.0107-0.0029-0.0215,0-0.0303,0.0059s-0.0142,0.0166-0.0146,0.0273l-0.02,0.6016c-0.0005,0.0166,0.0107,0.0313,0.0273,0.0352
				c0.3047,0.0713,0.6875,0.1016,1.0698,0.1016c0.6475,0,1.167-0.1748,1.5244-0.46c0.3594-0.2852,0.5547-0.6826,0.5547-1.1182
				C32.6748,14.875,32.5107,14.5859,32.2666,14.3887z"/>
		</g>
	</g>
	<g>
		<g>
			
				<radialGradient id="SVGID_1_" cx="639.7012" cy="928.6289" r="2.731" gradientTransform="matrix(1 0 0 1 -586 -926)" gradientUnits="userSpaceOnUse">
				<stop  offset="0" style="stop-color:#D99183"/>
				<stop  offset="0.7418" style="stop-color:#C64045"/>
			</radialGradient>
			<path fill="url(#SVGID_1_)" d="M52.8965,5.1279c0.3662-0.1011,0.7539-0.3232,1.1758-0.6572
				c0.1143-0.0908,0.2344-0.1738,0.3574-0.2505l0.9092-1.147l0.416,0.5156c0.2588-0.0923,0.5029-0.1582,0.7373-0.189
				c0.625-0.0825,1.2002,0.1479,1.7207,0.6479c-0.3867-1.5957-1.4082-2.4766-3.0586-2.4014
				c-1.0137,0.0459-1.8291,0.6494-2.4414,1.5879c-0.252,0.3877-0.4473,0.8774-0.4277,1.4541
				C52.2979,5.082,52.5625,5.2197,52.8965,5.1279z"/>
			<g>
				<g>
					<path fill="#C31F39" d="M58.0557,6.9556c-0.3564,0.2749-0.835,0.5337-1.1855,0.7114L56.834,7.6851l-1.5098-1.9136
						l-1.4785,1.9048l-0.0352-0.0161c-0.002-0.0024-0.7539-0.3457-1.1895-0.748l-0.7197,0.9067
						c0.5342,0.5977,1.3301,1.1514,2.4805,1.417l0.9619-1.23l0.9746,1.231c0.9814-0.1978,1.9277-0.8003,2.4551-1.3779
						L58.0557,6.9556z"/>
				</g>
				<g>
					<path fill="#E6A540" d="M55.3242,5.7715l-1.5049,1.8926l-0.8252,1.0366c0.5859,0.332,0.9268,0.4224,1.3906,0.5356l0.959-1.23
						l0.9766,1.2305c0.5332-0.1055,1.0684-0.3457,1.3457-0.5093l-0.8271-1.0444L56.834,7.6855L55.3242,5.7715z"/>
				</g>
				
					<radialGradient id="SVGID_2_" cx="640.0264" cy="928.2129" r="3.9862" gradientTransform="matrix(1 0 0 1 -586 -926)" gradientUnits="userSpaceOnUse">
					<stop  offset="0" style="stop-color:#D99183"/>
					<stop  offset="0.5" style="stop-color:#C31F39"/>
					<stop  offset="1" style="stop-color:#C31F39"/>
				</radialGradient>
				<path fill="url(#SVGID_2_)" d="M55.3389,3.0732l2.7861,3.4551c0.3389-0.5195,0.5371-1.1401,0.5371-1.8071
					c0-1.8276-1.4824-3.3096-3.3105-3.3096S52.042,2.8936,52.042,4.7212c0,0.6724,0.2002,1.2983,0.5449,1.8203L55.3389,3.0732z"/>
				<g>
					<path fill="#E6A540" d="M55.3242,5.7739l-1.5049,1.8901c0.4502,0.23,0.9844,0.3423,1.5244,0.3423
						c0.5332,0,1.0488-0.1001,1.4941-0.3232L55.3242,5.7739z"/>
				</g>
				<g>
					<path fill="#E6A540" d="M55.3242,5.7739l-1.5049,1.8901c0.4502,0.23,0.9844,0.3423,1.5244,0.3423
						c0.5332,0,1.0488-0.1001,1.4941-0.3232L55.3242,5.7739z"/>
				</g>
			</g>
		</g>
		
			<radialGradient id="SVGID_3_" cx="639.7051" cy="928.6299" r="2.7247" gradientTransform="matrix(1 0 0 1 -586 -926)" gradientUnits="userSpaceOnUse">
			<stop  offset="0" style="stop-color:#D99183"/>
			<stop  offset="0.7418" style="stop-color:#C64045"/>
		</radialGradient>
		<path opacity="0.4" fill="url(#SVGID_3_)" enable-background="new    " d="M52.9023,5.123
			c0.3652-0.1006,0.752-0.3228,1.1719-0.6558c0.1152-0.0903,0.2344-0.1733,0.3574-0.25l0.9072-1.144l0.415,0.5146
			c0.2578-0.0923,0.502-0.1582,0.7363-0.189c0.623-0.082,1.1973,0.1475,1.7158,0.6465c-0.3857-1.5918-1.4053-2.4707-3.0518-2.3955
			c-1.0098,0.0454-1.8242,0.6479-2.4346,1.5845c-0.2529,0.3867-0.4463,0.875-0.4277,1.4507
			C52.3047,5.0771,52.5693,5.2144,52.9023,5.123z"/>
	</g>
	<g>
		<path fill="#776A57" d="M58.6719,15.2725c0.166,0,0.3262,0.042,0.4844,0.127c0.1563,0.085,0.2793,0.2061,0.3662,0.3633
			c0.0879,0.1572,0.1318,0.3213,0.1318,0.4932c0,0.1689-0.043,0.332-0.1299,0.4883c-0.0859,0.1563-0.208,0.2773-0.3623,0.3633
			c-0.1563,0.0869-0.3193,0.1299-0.4902,0.1299c-0.1699,0-0.332-0.043-0.4883-0.1299c-0.1563-0.0859-0.2773-0.207-0.3633-0.3633
			c-0.0879-0.1563-0.1309-0.3193-0.1309-0.4883c0-0.1709,0.0439-0.3359,0.1328-0.4932c0.0879-0.1572,0.21-0.2783,0.3672-0.3633
			S58.5078,15.2725,58.6719,15.2725z M58.6719,15.4355c-0.1367,0-0.2715,0.0352-0.4023,0.1055
			c-0.1309,0.0713-0.2324,0.1719-0.3066,0.3037s-0.1104,0.2686-0.1104,0.4111c0,0.1406,0.0361,0.2773,0.1084,0.4063
			c0.0723,0.1299,0.1738,0.2314,0.3047,0.3037c0.1299,0.0723,0.2656,0.1084,0.4063,0.1084c0.1426,0,0.2773-0.0361,0.4082-0.1084
			c0.1299-0.0723,0.2314-0.1738,0.3027-0.3037c0.0723-0.1289,0.1084-0.2656,0.1084-0.4063c0-0.1426-0.0361-0.2793-0.1104-0.4111
			c-0.0723-0.1318-0.1748-0.2324-0.3066-0.3037C58.9434,15.4707,58.8096,15.4355,58.6719,15.4355z M58.2422,16.7988v-1.0576h0.3633
			c0.123,0,0.2129,0.0098,0.2695,0.0293c0.0547,0.0195,0.0996,0.0537,0.1328,0.1025c0.0322,0.0488,0.0488,0.0996,0.0488,0.1543
			c0,0.0781-0.0273,0.1445-0.082,0.2021c-0.0557,0.0576-0.1289,0.0898-0.2207,0.0967c0.0381,0.0156,0.0684,0.0342,0.0898,0.0557
			c0.043,0.042,0.0957,0.1123,0.1563,0.21l0.1289,0.207h-0.207l-0.0938-0.167c-0.0742-0.1309-0.1338-0.2129-0.1787-0.2461
			c-0.0313-0.0244-0.0771-0.0361-0.1377-0.0361h-0.0996v0.4492H58.2422L58.2422,16.7988z M58.4121,16.2031h0.207
			c0.0996,0,0.166-0.0137,0.2031-0.0439c0.0352-0.0293,0.0527-0.0684,0.0527-0.1172c0-0.0313-0.0078-0.0596-0.0254-0.084
			s-0.041-0.043-0.0723-0.0557c-0.0313-0.0117-0.0879-0.0176-0.1709-0.0176h-0.1943V16.2031L58.4121,16.2031z"/>
	</g>
</g>
</svg>
