<?xml version="1.0" encoding="utf-8"?>
<!-- Generator: Adobe Illustrator 16.0.0, SVG Export Plug-In . SVG Version: 6.00 Build 0)  -->
<!DOCTYPE svg PUBLIC "-//W3C//DTD SVG 1.1//EN" "http://www.w3.org/Graphics/SVG/1.1/DTD/svg11.dtd">
<svg version="1.1" id="Capa_1" xmlns="http://www.w3.org/2000/svg" xmlns:xlink="http://www.w3.org/1999/xlink" x="0px" y="0px"
	 width="60px" height="24px" viewBox="0 0 60 24" enable-background="new 0 0 60 24" xml:space="preserve">
<g>
	<path fill="#2B2C30" d="M14.783,4.273c0.649-0.637,1.412-0.746,2.242-0.467c0.234,0.08,0.439,0.211,0.587,0.41
		c0.108,0.143,0.17,0.16,0.307,0.023c0.717-0.7,2.077-0.78,2.869-0.171c0.472,0.364,0.66,0.888,0.677,1.458
		c0.023,1.03,0.012,2.066,0.006,3.096c-0.006,0.495-0.324,0.785-0.825,0.779c-0.472-0.005-0.774-0.319-0.774-0.808
		c0-0.819,0-1.645,0-2.464c0-0.108-0.012-0.216-0.029-0.325c-0.079-0.58-0.495-0.802-0.91-0.773
		c-0.484,0.034-0.786,0.393-0.791,0.927c-0.006,0.882,0.005,1.771-0.006,2.652c-0.006,0.336-0.137,0.62-0.473,0.734
		c-0.319,0.108-0.632,0.097-0.894-0.154c-0.159-0.154-0.228-0.347-0.228-0.569c0-0.82,0-1.645,0-2.465
		c0-0.176-0.017-0.347-0.063-0.512c-0.108-0.41-0.489-0.666-0.899-0.62c-0.466,0.057-0.769,0.393-0.774,0.899
		c-0.006,0.871-0.006,1.735,0,2.606c0,0.199-0.04,0.387-0.154,0.552c-0.188,0.279-0.569,0.393-0.922,0.296
		c-0.302-0.085-0.518-0.353-0.523-0.7c-0.012-1.395-0.012-2.783-0.006-4.177c0-0.422,0.222-0.672,0.597-0.757
		c0.427-0.091,0.717,0.046,0.928,0.438C14.749,4.216,14.766,4.244,14.783,4.273z"/>
	<path fill="#2B2C30" d="M38.38,8.872c-0.688,0.655-1.474,0.774-2.316,0.427c-0.603-0.251-0.882-0.774-0.967-1.389
		c-0.114-0.848-0.034-1.702-0.046-2.555c-0.006-0.341-0.052-0.688,0.034-1.024c0.097-0.393,0.443-0.644,0.831-0.604
		c0.427,0.04,0.717,0.313,0.729,0.74c0.018,0.813,0.012,1.627,0.012,2.441c0,0.154,0.006,0.313,0.034,0.467
		c0.073,0.473,0.393,0.757,0.836,0.746c0.467-0.017,0.803-0.336,0.809-0.82c0.017-0.819,0.006-1.645,0.011-2.464
		c0-0.125,0.012-0.25,0.028-0.37c0.063-0.473,0.364-0.746,0.809-0.734c0.455,0.011,0.785,0.335,0.791,0.814
		c0.012,1.354,0.006,2.709,0,4.058c0,0.404-0.244,0.723-0.569,0.796C38.938,9.498,38.614,9.333,38.38,8.872z"/>
	<path fill="#2B2C30" d="M32.455,3.231c0,0.563,0,0.563,0.563,0.575c0.364,0.012,0.575,0.222,0.575,0.586s-0.211,0.58-0.575,0.592
		c-0.563,0.012-0.563,0.012-0.563,0.575c0,0.625,0,1.252,0,1.878c0,0.438,0.08,0.529,0.507,0.598
		c0.404,0.068,0.649,0.353,0.626,0.74c-0.022,0.353-0.29,0.604-0.688,0.626c-0.33,0.017-0.654,0.023-0.979-0.051
		c-0.654-0.16-1.041-0.695-1.053-1.469c-0.011-0.859-0.006-1.719,0-2.578c0-0.205-0.039-0.313-0.278-0.319
		C30.292,4.979,30.07,4.7,30.076,4.393c0.006-0.302,0.216-0.563,0.507-0.575c0.233-0.006,0.302-0.097,0.284-0.313
		c-0.011-0.205-0.006-0.404-0.006-0.609c0-0.512,0.291-0.825,0.769-0.831c0.489-0.011,0.803,0.308,0.819,0.82
		C32.461,2.992,32.455,3.112,32.455,3.231z"/>
	<path fill="#2B2C30" d="M25.096,6.566c0,0.672,0,1.343,0,2.015c0,0.506-0.302,0.814-0.786,0.819
		c-0.507,0.006-0.814-0.301-0.814-0.813c0-1.343,0-2.692,0-4.036c0-0.501,0.336-0.837,0.814-0.831
		c0.472,0.006,0.786,0.336,0.786,0.831C25.096,5.224,25.096,5.896,25.096,6.566z"/>
	<path fill="#2B2C30" d="M28.716,6.555c0,0.711,0.005,1.423-0.006,2.134c-0.005,0.336-0.21,0.592-0.506,0.689
		c-0.336,0.108-0.706,0.005-0.911-0.25c-0.12-0.154-0.171-0.336-0.177-0.523c-0.005-1.355-0.005-2.704,0-4.058
		c0-0.461,0.273-0.751,0.711-0.82c0.376-0.057,0.723,0.171,0.854,0.535c0.045,0.119,0.04,0.245,0.04,0.37c0,0.643,0,1.28,0,1.923
		C28.716,6.555,28.716,6.555,28.716,6.555z"/>
	<path fill="#46D7FE" d="M24.498,0.244c1.076,0,2.157,0,3.233,0c-0.011,0.108-0.114,0.114-0.188,0.153
		c-0.313,0.182-0.501,0.438-0.467,0.814c0.028,0.353,0.216,0.586,0.529,0.734c0.068,0.028,0.16,0.028,0.177,0.125
		c-1.116,0-2.237,0-3.353,0c0.005-0.108,0.108-0.097,0.17-0.125c0.353-0.137,0.535-0.41,0.546-0.769
		c0.012-0.33-0.137-0.598-0.438-0.768C24.641,0.357,24.533,0.346,24.498,0.244z"/>
	<path fill="#2B2C30" d="M33.093,20.603c0.318-0.37,1.013-0.404,1.389,0.079c0.279-0.347,0.649-0.415,1.053-0.318
		c0.364,0.085,0.587,0.37,0.593,0.769c0.011,0.483,0.005,0.967,0.005,1.451c0,0.143-0.04,0.244-0.204,0.25
		c-0.177,0-0.223-0.103-0.223-0.262c0.006-0.398,0-0.797,0-1.195c0-0.427-0.182-0.648-0.529-0.654
		c-0.353-0.006-0.575,0.233-0.58,0.644c-0.006,0.393,0,0.779,0,1.172c0,0.143,0.011,0.296-0.199,0.296
		c-0.217,0-0.222-0.148-0.222-0.307c0-0.399,0.005-0.797,0-1.195c-0.006-0.404-0.205-0.615-0.547-0.609
		c-0.33,0.012-0.535,0.25-0.541,0.632c0,0.398,0,0.797,0,1.195c0,0.119-0.011,0.244-0.153,0.278c-0.148,0.034-0.273,0-0.273-0.188
		c0-0.688,0-1.377,0-2.066c0-0.119,0.057-0.199,0.171-0.21C32.99,20.329,33.053,20.46,33.093,20.603z"/>
	<path fill="#2B2C30" d="M23.462,21.553c0.307-0.342,0.563-0.638,0.825-0.928c0.063-0.068,0.12-0.148,0.188-0.211
		c0.085-0.074,0.182-0.091,0.273-0.011c0.091,0.085,0.074,0.182,0,0.267c-0.148,0.171-0.302,0.342-0.461,0.501
		c-0.085,0.086-0.091,0.154-0.022,0.256c0.21,0.319,0.41,0.644,0.608,0.969c0.08,0.131,0.206,0.289,0.012,0.403
		c-0.171,0.103-0.279-0.022-0.37-0.177c-0.199-0.341-0.41-0.671-0.62-1.013c-0.296,0.251-0.518,0.523-0.444,0.939
		c0.023,0.136,0,0.272-0.193,0.272c-0.199,0-0.228-0.131-0.228-0.284c0-0.979,0-1.958,0-2.931c0-0.16,0.04-0.279,0.233-0.279
		c0.193,0.006,0.193,0.143,0.193,0.279c0,0.546,0,1.092,0,1.645C23.462,21.336,23.462,21.41,23.462,21.553z"/>
	<path fill="#2B2C30" d="M24.498,0.244c0.661,0.279,0.899,0.836,0.586,1.377c-0.148,0.256-0.387,0.375-0.654,0.449
		c-0.393,0.005-0.717-0.12-0.922-0.473c-0.336-0.586,0.079-1.332,0.757-1.354C24.344,0.238,24.419,0.238,24.498,0.244z"/>
	<path fill="#2B2C30" d="M27.788,2.064C27.367,1.939,27.06,1.7,27.02,1.233c-0.04-0.478,0.182-0.774,0.717-0.99
		c0.581-0.006,0.956,0.228,1.064,0.666c0.142,0.575-0.228,1.093-0.825,1.155C27.914,2.064,27.851,2.064,27.788,2.064z"/>
	<path fill="#2B2C30" d="M14.356,14.979c0.222-0.011,0.433,0.028,0.632,0.12c0.125,0.057,0.256,0.125,0.193,0.29
		c-0.068,0.171-0.21,0.119-0.336,0.063c-0.188-0.08-0.381-0.125-0.592-0.108c-0.193,0.018-0.358,0.068-0.381,0.296
		c-0.023,0.223,0.125,0.302,0.313,0.331c0.193,0.028,0.387,0.051,0.575,0.085c0.336,0.063,0.529,0.256,0.569,0.563
		c0.045,0.313-0.103,0.626-0.387,0.757c-0.512,0.245-1.013,0.165-1.486-0.125c-0.108-0.068-0.142-0.177-0.085-0.285
		c0.068-0.119,0.182-0.131,0.302-0.063c0.284,0.16,0.569,0.29,0.911,0.193c0.193-0.057,0.33-0.159,0.318-0.369
		c-0.012-0.217-0.194-0.263-0.364-0.297c-0.136-0.022-0.279-0.033-0.416-0.051c-0.421-0.045-0.666-0.279-0.666-0.666
		c0-0.427,0.239-0.7,0.672-0.745C14.197,14.973,14.276,14.979,14.356,14.979z"/>
	<path fill="#2B2C30" d="M22.831,17.238c-0.313,0.308-0.66,0.358-1.024,0.199c-0.353-0.147-0.461-0.467-0.467-0.819
		c-0.005-0.455-0.005-0.905,0-1.36c0-0.217,0.177-0.324,0.342-0.228c0.091,0.057,0.085,0.142,0.085,0.228
		c0,0.415-0.006,0.831,0,1.246c0.011,0.467,0.302,0.7,0.706,0.592c0.228-0.063,0.37-0.256,0.375-0.529c0.006-0.403,0-0.813,0-1.218
		c0-0.079-0.005-0.153,0.034-0.228c0.051-0.091,0.125-0.143,0.228-0.119c0.113,0.022,0.165,0.103,0.159,0.222
		c0,0.433,0,0.859,0,1.292c0,0.216,0.005,0.438,0,0.654c0,0.12,0.04,0.262-0.137,0.302C22.956,17.512,22.876,17.409,22.831,17.238z"
		/>
	<path fill="#2B2C30" d="M41.078,22.827c-0.438-0.006-0.626-0.193-0.632-0.614c-0.006-0.427-0.006-0.859,0-1.286
		c0-0.143-0.022-0.229-0.188-0.211c-0.114,0.006-0.183-0.068-0.177-0.171s0.068-0.177,0.188-0.165
		c0.16,0.018,0.183-0.068,0.171-0.199c-0.006-0.125,0-0.25,0-0.376c0-0.142,0.068-0.228,0.211-0.222c0.137,0,0.21,0.086,0.21,0.228
		c0,0.058,0,0.108,0,0.165c0,0.364,0,0.364,0.354,0.404c0.114,0.012,0.171,0.063,0.171,0.177c0,0.119-0.068,0.165-0.177,0.165
		c-0.046,0-0.097,0.006-0.143,0c-0.165-0.023-0.21,0.052-0.21,0.211c0.011,0.403,0.005,0.813,0,1.218
		c0,0.165,0.068,0.278,0.233,0.29c0.159,0.012,0.313,0.017,0.29,0.233C41.368,22.89,41.187,22.811,41.078,22.827z"/>
	<path fill="#2B2C30" d="M28.158,20.841c0,0.416,0,0.831,0,1.241c0,0.188,0.022,0.364,0.284,0.364c0.114,0,0.159,0.103,0.159,0.199
		s-0.063,0.165-0.176,0.182c-0.421,0.068-0.683-0.131-0.694-0.574c-0.011-0.883-0.006-1.765-0.006-2.652
		c0-0.143,0.035-0.268,0.217-0.273c0.188-0.006,0.21,0.114,0.21,0.262C28.158,20.016,28.158,20.426,28.158,20.841z"/>
	<path fill="#2B2C30" d="M42.854,20.653c0.291-0.353,0.609-0.393,0.962-0.268c0.126,0.046,0.188,0.147,0.143,0.279
		c-0.045,0.137-0.165,0.153-0.29,0.119c-0.569-0.131-0.809,0.057-0.814,0.643c-0.006,0.364,0,0.734,0,1.1
		c0,0.142,0.006,0.295-0.205,0.29c-0.21,0-0.228-0.148-0.228-0.308c0-0.626,0-1.246,0-1.872c0-0.154,0.046-0.273,0.199-0.297
		C42.774,20.335,42.859,20.438,42.854,20.653z"/>
	<path fill="#2B2C30" d="M19.564,20.631c0.278-0.302,0.586-0.387,0.905-0.257c0.131,0.058,0.239,0.126,0.182,0.296
		c-0.057,0.16-0.182,0.148-0.308,0.114c-0.523-0.131-0.785,0.068-0.785,0.609c-0.006,0.393,0,0.779,0,1.172
		c0,0.154-0.04,0.262-0.222,0.262c-0.188,0-0.205-0.119-0.205-0.267c0-0.633,0.006-1.27,0-1.901c0-0.154,0.006-0.296,0.194-0.308
		C19.495,20.346,19.558,20.471,19.564,20.631z"/>
	<path fill="#2B2C30" d="M24.589,15.292c0.188-0.279,0.444-0.348,0.746-0.319c0.08,0.006,0.154,0.029,0.222,0.068
		c0.097,0.058,0.171,0.131,0.12,0.268c-0.045,0.132-0.142,0.154-0.262,0.132c-0.66-0.12-0.836,0.028-0.836,0.705
		c0,0.354,0,0.706,0,1.053c0,0.148-0.04,0.268-0.216,0.273c-0.182,0.006-0.211-0.113-0.211-0.268c0.006-0.632,0.006-1.264,0-1.9
		c0-0.148,0-0.302,0.188-0.319C24.515,14.984,24.578,15.109,24.589,15.292z"/>
	<path fill="#2B2C30" d="M26.069,21.593c0-0.319,0.005-0.638,0-0.956c0-0.154,0.04-0.279,0.205-0.279
		c0.16-0.006,0.233,0.113,0.233,0.268c0,0.654,0,1.309,0,1.964c0,0.147-0.063,0.256-0.239,0.25
		c-0.176-0.006-0.193-0.125-0.193-0.256C26.069,22.247,26.069,21.917,26.069,21.593z"/>
	<path fill="#2B2C30" d="M30.976,19.379c-0.08,0.232-0.216,0.438-0.387,0.614c-0.04,0.045-0.137,0.034-0.2-0.012
		c-0.068-0.051-0.063-0.131-0.034-0.193c0.085-0.193,0.205-0.364,0.335-0.529c0.052-0.057,0.12-0.074,0.188-0.04
		C30.941,19.253,30.981,19.299,30.976,19.379z"/>
	<path fill="#2B2C30" d="M26.268,19.333c0.177,0.012,0.285,0.085,0.285,0.273c0.005,0.188-0.108,0.284-0.268,0.29
		c-0.165,0.006-0.284-0.103-0.284-0.273C25.995,19.446,26.098,19.345,26.268,19.333z"/>
	<path fill="#2B2C30" d="M46.793,6.641c0-0.347-0.006-0.632-0.057-0.922c-0.166-0.894-0.609-1.577-1.503-1.89
		c-0.49-0.171-1.002-0.205-1.52-0.125c-0.968,0.148-1.629,0.655-1.925,1.6c-0.21,0.666-0.228,1.354-0.119,2.038
		c0.148,0.939,0.598,1.667,1.549,1.98c0.677,0.222,1.36,0.216,2.037-0.022c0.62-0.222,1.053-0.638,1.298-1.252
		C46.747,7.574,46.81,7.084,46.793,6.641z M45.091,7.42c-0.103,0.444-0.41,0.688-0.842,0.706c-0.444,0.017-0.758-0.21-0.899-0.66
		c-0.034-0.102-0.068-0.21-0.074-0.318c-0.012-0.188-0.006-0.376-0.006-0.563c-0.006-0.256-0.018-0.512,0.034-0.769
		c0.091-0.473,0.404-0.774,0.848-0.785c0.501-0.017,0.826,0.222,0.939,0.723C45.222,6.305,45.216,6.863,45.091,7.42z"/>
	<path fill="#2B2C30" d="M20.531,15.309c0-0.137-0.028-0.272-0.188-0.313c-0.142-0.028-0.21,0.068-0.256,0.182
		c-0.006,0.012-0.023,0.022-0.034,0.034c-0.609-0.495-1.32-0.262-1.502,0.501c-0.063,0.257-0.04,0.513-0.028,0.769
		c0.034,0.654,0.404,0.979,1.047,0.939c0.193-0.012,0.347-0.108,0.495-0.239c0.103,0.648-0.216,0.894-0.688,0.842
		c-0.142-0.011-0.268-0.073-0.387-0.159c-0.108-0.074-0.233-0.125-0.33,0.012c-0.103,0.147,0,0.245,0.108,0.336
		c0.182,0.147,0.404,0.188,0.632,0.216c0.586,0.074,1.042-0.296,1.104-0.876c0.022-0.217,0.028-0.438,0.028-0.655
		C20.531,16.373,20.531,15.838,20.531,15.309z M20.024,16.669c-0.096,0.245-0.284,0.382-0.529,0.376
		c-0.233-0.012-0.426-0.153-0.495-0.393c-0.08-0.273-0.085-0.553-0.018-0.825c0.086-0.325,0.296-0.49,0.575-0.467
		c0.279,0.028,0.478,0.239,0.506,0.546c0.011,0.103,0,0.205,0,0.302C20.076,16.362,20.087,16.521,20.024,16.669z"/>
	<path fill="#2B2C30" d="M44.015,15.332c0-0.148-0.005-0.296-0.182-0.336c-0.171-0.04-0.239,0.085-0.273,0.228
		c-0.586-0.483-1.32-0.284-1.503,0.387c-0.091,0.342-0.073,0.689-0.028,1.042c0.114,0.825,1.042,0.973,1.531,0.512
		c0.074,0.609-0.204,0.934-0.717,0.854c-0.16-0.022-0.29-0.107-0.422-0.188c-0.103-0.063-0.198-0.045-0.272,0.04
		c-0.068,0.085-0.04,0.177,0.017,0.256c0.063,0.086,0.148,0.137,0.239,0.183c0.302,0.143,0.615,0.153,0.934,0.068
		c0.444-0.126,0.672-0.473,0.672-1.03C44.021,16.681,44.015,16.009,44.015,15.332z M43.515,16.652
		c-0.08,0.25-0.279,0.393-0.519,0.387s-0.421-0.131-0.501-0.376c-0.107-0.318-0.103-0.643,0.012-0.962
		c0.085-0.238,0.268-0.347,0.501-0.341c0.233,0,0.41,0.113,0.495,0.353c0.057,0.165,0.08,0.33,0.08,0.501
		C43.583,16.367,43.565,16.51,43.515,16.652z"/>
	<path fill="#2B2C30" d="M38.728,15.815c-0.028-0.21-0.091-0.41-0.239-0.569c-0.336-0.37-0.876-0.376-1.354-0.005
		c-0.012-0.154-0.074-0.263-0.233-0.245c-0.148,0.017-0.199,0.131-0.199,0.273c0,0.956,0,1.906,0,2.862
		c0,0.143,0.051,0.273,0.222,0.273c0.177,0,0.205-0.125,0.205-0.279c-0.006-0.284,0-0.574,0-0.898
		c0.593,0.512,1.344,0.324,1.554-0.348C38.79,16.532,38.779,16.174,38.728,15.815z M38.289,16.629
		c-0.057,0.302-0.278,0.495-0.563,0.495c-0.284-0.005-0.518-0.198-0.558-0.501c-0.034-0.256-0.034-0.512,0-0.762
		c0.04-0.291,0.273-0.496,0.558-0.507c0.279-0.012,0.513,0.188,0.563,0.489c0.023,0.131,0.052,0.262,0.034,0.393
		C38.335,16.373,38.313,16.499,38.289,16.629z"/>
	<path fill="#2B2C30" d="M15.472,20.938c-0.12-0.394-0.41-0.599-0.814-0.609c-0.273-0.006-0.507,0.057-0.717,0.284
		c-0.006-0.182-0.097-0.278-0.245-0.25c-0.154,0.022-0.199,0.147-0.199,0.296c0.006,0.938,0,1.878,0,2.812
		c0,0.153,0.04,0.29,0.228,0.29c0.182,0,0.21-0.131,0.21-0.278c0-0.279,0-0.563,0-0.877c0.581,0.489,1.406,0.284,1.565-0.421
		C15.591,21.763,15.597,21.348,15.472,20.938z M15.09,21.985c-0.052,0.29-0.279,0.489-0.564,0.489c-0.273,0-0.5-0.188-0.558-0.473
		c-0.028-0.137-0.057-0.272-0.034-0.415c-0.022-0.137,0.012-0.262,0.034-0.393c0.057-0.302,0.279-0.484,0.569-0.479
		c0.273,0.006,0.5,0.193,0.546,0.479C15.13,21.462,15.136,21.724,15.09,21.985z"/>
	<path fill="#2B2C30" d="M31.96,15.662c0-0.467,0-0.939,0-1.406c0-0.143-0.017-0.272-0.205-0.272c-0.17,0-0.228,0.102-0.228,0.262
		c0,0.324,0,0.648,0,0.99c-0.523-0.473-1.44-0.342-1.577,0.529c-0.051,0.33-0.063,0.671,0.017,1.001
		c0.182,0.774,0.945,1.014,1.549,0.484c0.039,0.147,0.107,0.262,0.284,0.228c0.188-0.034,0.165-0.183,0.165-0.313
		C31.96,16.658,31.96,16.163,31.96,15.662z M31.459,16.783c-0.097,0.216-0.307,0.353-0.535,0.347
		c-0.238-0.011-0.443-0.147-0.512-0.375c-0.097-0.336-0.097-0.678,0-1.014c0.074-0.25,0.336-0.404,0.582-0.376
		c0.296,0.034,0.489,0.24,0.523,0.563c0.011,0.108,0,0.217,0,0.273C31.533,16.43,31.533,16.612,31.459,16.783z"/>
	<path fill="#2B2C30" d="M38.909,22.247c-0.091,0.057-0.182,0.119-0.284,0.159c-0.489,0.199-0.916-0.04-0.968-0.523
		c-0.011-0.125,0.022-0.153,0.131-0.153c0.211,0.005,0.421,0,0.632,0c0.188,0,0.376-0.012,0.563,0
		c0.233,0.017,0.302-0.08,0.29-0.303c-0.011-0.147-0.028-0.295-0.073-0.438c-0.126-0.422-0.462-0.66-0.905-0.666
		c-0.541-0.006-0.865,0.199-1.008,0.654c-0.125,0.388-0.113,0.785-0.017,1.178c0.097,0.382,0.347,0.627,0.734,0.694
		c0.415,0.075,0.809-0.005,1.133-0.301c0.079-0.074,0.125-0.165,0.04-0.268C39.103,22.185,39.012,22.185,38.909,22.247z
		 M37.68,21.097c0.074-0.272,0.364-0.438,0.684-0.393c0.256,0.04,0.473,0.297,0.479,0.559c0,0.091-0.04,0.103-0.108,0.103
		c-0.165,0-0.33,0-0.489,0c-0.12,0-0.233,0-0.354,0C37.617,21.37,37.612,21.359,37.68,21.097z"/>
	<path fill="#2B2C30" d="M33.31,16.373c0.193,0.018,0.393,0.006,0.586,0.006c0.119,0,0.233,0,0.353,0
		c0.523,0,0.541-0.017,0.473-0.541c-0.063-0.478-0.404-0.825-0.843-0.859c-0.62-0.045-0.984,0.171-1.132,0.694
		c-0.08,0.285-0.086,0.581-0.052,0.877c0.052,0.421,0.211,0.763,0.626,0.899c0.467,0.153,0.905,0.073,1.286-0.262
		c0.092-0.08,0.108-0.183,0.04-0.273c-0.068-0.097-0.171-0.08-0.268-0.022c-0.103,0.057-0.199,0.131-0.308,0.171
		c-0.443,0.165-0.87-0.052-0.944-0.468C33.099,16.453,33.121,16.362,33.31,16.373z M33.127,15.793
		c0.057-0.291,0.296-0.45,0.643-0.438c0.273,0.011,0.49,0.222,0.524,0.495c0.017,0.137-0.028,0.182-0.159,0.171
		c-0.137-0.012-0.279,0-0.422,0c-0.131,0-0.267-0.012-0.398,0.006C33.116,16.049,33.099,15.94,33.127,15.793z"/>
	<path fill="#2B2C30" d="M16.513,16.373c0.193,0.012,0.393,0.006,0.586,0.006c0.102,0,0.205,0,0.307,0
		c0.563,0.006,0.609,0.051,0.506-0.604c-0.074-0.472-0.427-0.773-0.894-0.797c-0.586-0.028-0.939,0.205-1.076,0.712
		c-0.085,0.313-0.074,0.638-0.028,0.95c0.051,0.393,0.25,0.706,0.66,0.825c0.455,0.126,0.876,0.046,1.241-0.273
		c0.091-0.079,0.103-0.188,0.04-0.272c-0.068-0.097-0.177-0.08-0.273-0.023c-0.068,0.04-0.125,0.091-0.194,0.126
		c-0.443,0.238-0.916,0.051-1.041-0.41C16.291,16.453,16.308,16.362,16.513,16.373z M16.325,15.815
		c0.068-0.313,0.302-0.479,0.654-0.461c0.273,0.011,0.479,0.216,0.513,0.483c0.011,0.126,0,0.193-0.154,0.183
		c-0.143-0.012-0.279,0-0.421,0c-0.143,0-0.285-0.012-0.422,0C16.325,16.037,16.297,15.964,16.325,15.815z"/>
	<path fill="#2B2C30" d="M41.437,17.198c-0.188-0.296-0.142-0.632-0.147-0.956c0-0.171,0.006-0.347,0-0.518
		c-0.012-0.245-0.103-0.455-0.308-0.604c-0.302-0.216-1.059-0.205-1.366,0.006c-0.107,0.073-0.143,0.177-0.097,0.284
		c0.051,0.125,0.171,0.091,0.268,0.063c0.103-0.028,0.205-0.079,0.308-0.108c0.473-0.113,0.785,0.092,0.785,0.496
		c0,0.125-0.04,0.159-0.159,0.159c-0.256-0.006-0.518-0.012-0.769,0.034c-0.308,0.063-0.541,0.268-0.58,0.529
		c-0.063,0.375,0.045,0.677,0.324,0.809c0.376,0.176,0.757,0.176,1.115-0.046c0.12-0.074,0.183-0.119,0.262,0.034
		c0.058,0.113,0.193,0.113,0.29,0.063C41.46,17.403,41.505,17.307,41.437,17.198z M40.691,17.039
		c-0.211,0.131-0.444,0.131-0.678,0.068c-0.177-0.045-0.256-0.182-0.256-0.348c0-0.153,0.085-0.272,0.244-0.335
		c0.154-0.058,0.308-0.034,0.438-0.046c0.052,0,0.074-0.006,0.097,0c0.114,0.028,0.262-0.079,0.33,0.068
		C40.953,16.623,40.851,16.937,40.691,17.039z"/>
	<path fill="#2B2C30" d="M46.741,21.199c-0.068-0.489-0.404-0.842-0.859-0.87c-0.626-0.04-1.024,0.21-1.149,0.745
		c-0.04,0.165-0.046,0.342-0.068,0.507c0.022,0.177,0.028,0.347,0.063,0.512c0.091,0.456,0.45,0.757,0.899,0.774
		c0.581,0.022,0.928-0.205,1.07-0.694C46.793,21.854,46.787,21.53,46.741,21.199z M46.286,22.025
		c-0.074,0.301-0.308,0.472-0.598,0.455c-0.296-0.023-0.518-0.228-0.546-0.541c-0.018-0.216-0.018-0.438,0-0.654
		c0.022-0.336,0.25-0.552,0.568-0.563c0.313-0.012,0.558,0.205,0.598,0.535c0.018,0.113,0,0.233,0,0.353c0.006,0,0.018,0,0.022,0
		C46.32,21.746,46.32,21.889,46.286,22.025z"/>
	<path fill="#2B2C30" d="M28.05,15.759c-0.085-0.45-0.427-0.752-0.865-0.78c-0.603-0.034-0.956,0.177-1.104,0.672
		c-0.097,0.319-0.097,0.644-0.051,0.968c0.068,0.506,0.41,0.859,0.894,0.894c0.581,0.04,0.985-0.222,1.116-0.74
		c0.045-0.171,0.074-0.353,0.063-0.552C28.118,16.077,28.078,15.918,28.05,15.759z M27.629,16.566
		c-0.029,0.325-0.245,0.535-0.552,0.558c-0.279,0.018-0.523-0.159-0.592-0.461c-0.063-0.272-0.063-0.558,0-0.836
		c0.068-0.313,0.324-0.495,0.609-0.467c0.313,0.028,0.512,0.245,0.541,0.574c0.011,0.108,0,0.217,0,0.33l0,0
		C27.629,16.362,27.64,16.464,27.629,16.566z"/>
	<path fill="#2B2C30" d="M31.431,20.938c-0.137-0.399-0.466-0.609-0.922-0.609c-0.507,0-0.814,0.193-0.973,0.604
		c-0.086,0.216-0.091,0.438-0.08,0.665c0,0.12-0.006,0.233,0,0.354c0.04,0.483,0.393,0.865,0.848,0.916
		c0.563,0.063,0.996-0.177,1.145-0.66C31.573,21.786,31.573,21.354,31.431,20.938z M31.055,21.991
		c-0.051,0.284-0.267,0.472-0.552,0.483c-0.279,0.012-0.501-0.159-0.581-0.443c-0.045-0.154-0.04-0.308-0.045-0.468
		c0-0.142,0-0.278,0.045-0.415c0.085-0.29,0.29-0.45,0.581-0.438c0.285,0.012,0.49,0.193,0.547,0.484
		C31.106,21.468,31.106,21.729,31.055,21.991z"/>
	<path fill="#2B2C30" d="M18.289,21.604c0-0.131,0.012-0.268,0-0.398c-0.051-0.483-0.404-0.842-0.854-0.876
		c-0.609-0.052-1.03,0.204-1.155,0.711c-0.091,0.358-0.091,0.729-0.006,1.087c0.103,0.438,0.461,0.723,0.905,0.734
		c0.563,0.018,0.911-0.21,1.059-0.683C18.306,21.991,18.294,21.797,18.289,21.604z M17.822,22.07
		c-0.086,0.256-0.296,0.416-0.563,0.41c-0.279-0.006-0.512-0.199-0.563-0.473s-0.051-0.54,0-0.813
		c0.057-0.291,0.29-0.479,0.581-0.479c0.324,0.006,0.546,0.223,0.586,0.581c0.012,0.102,0,0.205,0,0.307
		C17.868,21.758,17.868,21.917,17.822,22.07z"/>
	<path fill="#2B2C30" d="M46.787,16.248c0-0.119,0.006-0.233,0-0.353c-0.04-0.524-0.398-0.894-0.882-0.923
		c-0.655-0.039-1.02,0.223-1.15,0.803c-0.051,0.239-0.046,0.483-0.034,0.724c0.04,0.586,0.388,0.967,0.905,1.013
		c0.598,0.052,1.007-0.228,1.133-0.797c0.034-0.148,0.028-0.308,0.045-0.467C46.798,16.248,46.793,16.248,46.787,16.248z
		 M46.326,16.658c-0.091,0.301-0.308,0.478-0.587,0.461c-0.301-0.018-0.501-0.211-0.552-0.529c-0.04-0.233-0.04-0.461,0-0.694
		c0.057-0.336,0.256-0.535,0.563-0.547c0.29-0.012,0.495,0.171,0.586,0.495c0.035,0.131,0.018,0.262,0.029,0.393
		C46.354,16.385,46.366,16.521,46.326,16.658z"/>
</g>
</svg>
