<svg width="441" height="163" viewBox="0 0 441 163" fill="none" xmlns="http://www.w3.org/2000/svg">
<path d="M154.1 55.1C151.3 55.1 148.6 54.6 146.2 53.5C143.8 52.5 141.7 51 140 49.3C138.3 47.5 136.9 45.5 135.9 43.1C134.9 40.7 134.4 38.2 134.4 35.5V35.4C134.4 32.7 134.9 30.2 135.9 27.8C136.9 25.4 138.3 23.3 140.1 21.5C141.9 19.7 144 18.3 146.5 17.2C149 16.2 151.7 15.6 154.7 15.6C158.6 15.6 161.9 16.4 164.5 17.9C167.1 19.4 169.9 22.2 171.4 25.1L161.9 30.8C161 29.5 160 28.6 158.9 27.9C157.8 27.2 156.5 26.9 154.9 26.9C153.8 26.9 152.8 27.1 151.9 27.6C151 28 150.2 28.6 149.6 29.4C148.9 30.2 148.4 31.1 148.1 32.1C147.7 33.1 147.5 34.2 147.5 35.3V35.4C147.5 36.6 147.7 37.7 148.1 38.8C148.5 39.8 149 40.8 149.6 41.5C150.3 42.3 151 42.9 152 43.3C152.9 43.7 154 44 155.1 44C156.7 44 158 43.7 159.1 43C160.2 42.3 161.3 41.3 162.3 40.1L171.5 45.7C169.9 48.6 167.2 51.2 164.5 52.8C161.6 54.3 158.2 55.1 154.1 55.1Z" fill="white"/>
<path d="M176.6 16.5H188.8V24.1C189.9 21.5 191.3 19.5 193.2 18C195.1 16.5 197.6 15.8 200.7 15.9V27.5H199.6C196.1 27.5 193.4 28.5 191.6 30.6C189.7 32.6 188.8 35.9 188.8 40.2V54.2H176.6V16.5Z" fill="white"/>
<path d="M215.1 55C213.3 55 211.6 54.7 210.1 54.2C208.6 53.7 207.2 52.9 206.1 52C205 51 204.1 49.8 203.4 48.4C202.7 47 202.4 45.3 202.4 43.4V43.3C202.4 41.3 202.8 39.6 203.5 38.1C204.2 36.6 205.2 35.4 206.5 34.4C207.8 33.4 209.3 32.7 211.1 32.2C212.9 31.7 214.9 31.4 217.2 31.4C219 31.4 226.3 31.6 226.3 31.6C226.3 29.6 225.7 28.5 224.5 27.4C223.3 26.3 221.4 25.8 218.8 25.8C214.5 25.8 209.7 28 208.1 28.6L204.7 20.2C206.8 19.3 210.2 17.8 212.6 17.3C215 16.8 217.7 16.2 221 16.2C226 16.2 227.2 16.7 229.6 17.4C238.5 19.8 238.8 28.2 238.8 32.5V54.2H226.3V50.3C225 51.7 223.5 52.9 221.7 53.8C219.7 54.6 217.6 55 215.1 55ZM219.1 46.3C221.3 46.3 222.8 45.8 224.1 44.7C225.4 43.6 226.4 42.2 226.4 40.4V38.4C223 38.4 217.2 37.8 215.7 39C214.6 39.9 214 40.9 214 42.2V42.3C214 43.5 214.5 44.5 215.5 45.2C216.4 46 217.6 46.3 219.1 46.3Z" fill="white"/>
<path d="M270.8 54.6C263 54.6 260.1 50.2 259.5 49.5V54.1H246.8V3H259.5L259.4 21.5C260.1 20.7 263.4 16.2 270.7 16.2C272.9 16.2 275.1 16.7 277.1 17.6C279.1 18.5 281.1 19.6 282.7 21.3C284.3 23 285.6 24.6 286.5 27C287.4 29.4 287.9 32.1 287.9 35.2V35.3C287.9 38.4 287.4 41.1 286.5 43.6C285.6 46 284.4 48.1 282.9 49.8C281.3 51.5 276.8 54.6 270.8 54.6ZM267.3 44.3C269.6 44.3 271.4 43.5 273 41.8C274.5 40.1 275.3 37.9 275.3 35.2V35.1C275.3 32.4 274.5 30.3 273 28.6C271.5 26.9 269.6 26.1 267.3 26.1C266.2 26.1 265.2 26.3 264.2 26.8C263.2 27.2 262.4 27.9 261.7 28.7C261 29.5 260.4 30.5 260 31.5C259.6 32.6 259.4 33.8 259.4 35.1V35.2C259.4 36.5 259.6 37.7 260 38.9C260.4 40 261 41 261.7 41.8C262.4 42.6 263.3 43.2 264.2 43.7C265.2 44.1 266.2 44.3 267.3 44.3Z" fill="white"/>
<path d="M293.8 16.5H306.3V54.2H293.8V16.5ZM306.7 7.2C306.7 3.6 303.8 0.699997 300.2 0.699997C296.6 0.699997 293.7 3.6 293.7 7.2C293.7 10.8 296.6 13.7 300.2 13.7C303.8 13.7 306.7 10.7 306.7 7.2Z" fill="white"/>
<path d="M352.4 162.3H302L253.9 90.9H276.3L352.4 162.3Z" fill="white"/>
<path d="M440.7 162.3H389.6L296.8 90.9H319.1L440.7 162.3Z" fill="white"/>
<path d="M234.9 90.9H222.4H218.7H206.2L192.7 162.3H218.7H222.4H248.3L234.9 90.9Z" fill="white"/>
<path d="M88.6 162.3H139.1L187.1 90.9H164.8L88.6 162.3Z" fill="white"/>
<path d="M0.399994 162.3H51.4L144.3 90.9H122L0.399994 162.3Z" fill="white"/>
</svg>
