<?xml version="1.0" encoding="utf-8"?>
<!-- Generator: Adobe Illustrator 17.0.0, SVG Export Plug-In . SVG Version: 6.00 Build 0)  -->
<!DOCTYPE svg PUBLIC "-//W3C//DTD SVG 1.1//EN" "http://www.w3.org/Graphics/SVG/1.1/DTD/svg11.dtd">
<svg version="1.1" id="Capa_1" xmlns="http://www.w3.org/2000/svg" xmlns:xlink="http://www.w3.org/1999/xlink" x="0px" y="0px"
	 width="60px" height="24px" viewBox="0 0 60 24" enable-background="new 0 0 60 24" xml:space="preserve">
<g id="HDI">
	<rect x="17.793" y="0.02" fill="#FFFFFF" width="2.986" height="9.017"/>
	<rect x="23.785" fill="#FFFFFF" width="3.006" height="9.017"/>
	<g>
		<g>
			<path fill="#FFFFFF" d="M32.841,0H29v9h3.085C38.514,10,40.345,0,32.841,0z M33,6.748V2.15C35,1.712,36,6.987,33,6.748z"/>
		</g>
		<g>
			<rect x="39.549" y="0.04" fill="#FFFFFF" width="3.006" height="8.997"/>
		</g>
		<g>
			<rect x="20.779" y="3.085" fill="#FFFFFF" width="3.006" height="3.006"/>
		</g>
		<g>
			<path fill="#FFFFFF" d="M19.671,13.27c-0.141-0.079-0.411-0.192-0.766-0.192c-0.513,0-0.727,0.299-0.727,0.575
				c0,0.366,0.242,0.547,0.789,0.783c0.693,0.304,1.025,0.682,1.025,1.274c0,0.721-0.535,1.262-1.504,1.262
				c-0.406,0-0.834-0.118-1.042-0.259l0.146-0.547c0.231,0.141,0.58,0.254,0.935,0.254c0.513,0,0.8-0.265,0.8-0.654
				c0-0.366-0.22-0.592-0.733-0.805c-0.642-0.259-1.076-0.648-1.076-1.234c0-0.682,0.547-1.194,1.403-1.194
				c0.411,0,0.721,0.101,0.907,0.197L19.671,13.27z"/>
		</g>
		<g>
			<path fill="#FFFFFF" d="M23.678,16.787c-0.22,0.101-0.563,0.186-0.986,0.186c-0.935,0-1.477-0.626-1.477-1.572
				c0-0.924,0.519-1.662,1.398-1.662c0.874,0,1.223,0.727,1.223,1.493c0,0.107-0.006,0.197-0.017,0.276h-1.972
				c0.017,0.699,0.451,0.964,0.941,0.964c0.344,0,0.58-0.062,0.783-0.147L23.678,16.787z M23.216,15.04
				c0.006-0.372-0.146-0.834-0.648-0.834c-0.479,0-0.682,0.473-0.716,0.834H23.216z"/>
		</g>
		<g>
			<path fill="#FFFFFF" d="M27.809,13.806c-0.017,0.22-0.028,0.479-0.028,0.896v1.77c0,0.62-0.051,1.764-1.521,1.764
				c-0.361,0-0.738-0.079-0.98-0.226l0.146-0.507c0.192,0.113,0.49,0.22,0.84,0.22c0.507,0,0.868-0.282,0.868-0.986v-0.299h-0.011
				c-0.158,0.265-0.462,0.456-0.862,0.456c-0.733,0-1.234-0.648-1.234-1.516c0-1.054,0.637-1.639,1.313-1.639
				c0.462,0,0.721,0.237,0.851,0.484h0.012l0.028-0.417C27.229,13.806,27.809,13.806,27.809,13.806z M27.128,15.006
				c0-0.411-0.271-0.75-0.671-0.75c-0.451,0-0.766,0.428-0.766,1.093c0,0.609,0.276,1.042,0.761,1.042
				c0.338,0,0.676-0.259,0.676-0.778V15.006L27.128,15.006z"/>
		</g>
		<g>
			<path fill="#FFFFFF" d="M31.89,16.02c0,0.349,0.017,0.642,0.028,0.89h-0.575l-0.034-0.451h-0.017
				c-0.129,0.214-0.434,0.513-0.935,0.513c-0.535,0-1.003-0.332-1.003-1.324V13.8h0.654v1.741c0,0.535,0.152,0.891,0.58,0.891
				c0.299,0,0.648-0.237,0.648-0.705v-1.922h0.654V16.02L31.89,16.02z"/>
		</g>
		<g>
			<path fill="#FFFFFF" d="M35.04,14.38c-0.056-0.011-0.118-0.017-0.192-0.017c-0.439,0-0.716,0.36-0.716,0.901v1.645h-0.654v-2.158
				c0-0.36-0.006-0.659-0.023-0.946h0.569l0.022,0.569h0.022c0.141-0.394,0.468-0.637,0.806-0.637c0.062,0,0.107,0.006,0.164,0.017
				C35.04,13.755,35.04,14.38,35.04,14.38z"/>
		</g>
		<g>
			<path fill="#FFFFFF" d="M38.974,15.333c0,1.161-0.755,1.64-1.454,1.64c-0.806,0-1.42-0.592-1.42-1.595
				c0-1.048,0.642-1.64,1.465-1.64C38.416,13.738,38.974,14.38,38.974,15.333 M37.543,14.228c-0.558,0-0.772,0.597-0.772,1.133
				c0,0.608,0.287,1.121,0.766,1.121c0.473,0,0.766-0.513,0.766-1.132C38.304,14.837,38.089,14.228,37.543,14.228"/>
		</g>
		<g>
			<path fill="#FFFFFF" d="M41.916,14.392c-0.124-0.079-0.338-0.175-0.592-0.175c-0.293,0-0.451,0.169-0.451,0.377
				c0,0.214,0.141,0.321,0.518,0.485c0.513,0.209,0.783,0.49,0.783,0.941c0,0.597-0.457,0.952-1.161,0.952
				c-0.327,0-0.637-0.085-0.845-0.208l0.146-0.485c0.158,0.096,0.445,0.208,0.71,0.208c0.349,0,0.518-0.169,0.518-0.406
				c0-0.237-0.13-0.366-0.501-0.524c-0.552-0.22-0.795-0.53-0.795-0.891c0-0.518,0.422-0.93,1.076-0.93
				c0.305,0,0.569,0.084,0.738,0.18L41.916,14.392z"/>
		</g>
	</g>
</g>
</svg>
