<?xml version="1.0" encoding="utf-8"?>
<!-- Generator: Adobe Illustrator 23.0.2, SVG Export Plug-In . SVG Version: 6.00 Build 0)  -->
<svg version="1.1" id="Capa_1" xmlns="http://www.w3.org/2000/svg" xmlns:xlink="http://www.w3.org/1999/xlink" x="0px" y="0px"
	 viewBox="0 0 945.7 288.8" style="enable-background:new 0 0 945.7 288.8;" xml:space="preserve">
<style type="text/css">
	.st0{fill:#FFFFFF;}
</style>
<g id="Logo">
	<g>
		<g>
			<path class="st0" d="M227.1,191c-6.6,1.3-10.6,4.9-30.7,11c-19.4,4.9-52.8,3.6-79.5-8.1C96.3,185.3,65.2,172,65.2,172l-21.9-9.8
				l-4.5,14.3c0,0,34.4,13,61.9,31.3c12.5,8.3,47,30,47,30s16.4,12,23.9,11.9c6.5-0.1,12-7,20.6-15.3c10.6-9.5,15.4-14.8,27-24.3
				c7.7-6.9,11.6-10.4,12.5-12.1C234,194.1,230.9,190.3,227.1,191"/>
			<path class="st0" d="M136.8,162.6c-18.7,0-48.5-8.5-48.5-63.2c0-34.9,13.6-62.4,48.5-63.2c38.9,0.8,48.5,27.1,48.5,63.2
				C186.1,135,173.7,163.4,136.8,162.6 M230,99.6c0-35-23.7-77.5-93.1-78.3c-61.2,1.7-93,35.1-93,78.4c1.7,61.8,57.2,78.3,93.1,78.3
				C195.8,178,231.6,143.8,230,99.6"/>
			<rect y="279.8" class="st0" width="8.9" height="9"/>
			<rect x="21.9" y="279.8" class="st0" width="8.9" height="9"/>
			<rect x="43.7" y="279.8" class="st0" width="9" height="9"/>
			<rect x="65.6" y="279.8" class="st0" width="8.9" height="9"/>
			<rect x="87.4" y="279.8" class="st0" width="8.9" height="9"/>
			<rect x="109.3" y="279.8" class="st0" width="8.9" height="9"/>
			<rect x="131.2" y="279.8" class="st0" width="8.9" height="9"/>
			<rect x="153" y="279.8" class="st0" width="8.9" height="9"/>
			<rect x="174.9" y="279.8" class="st0" width="8.9" height="9"/>
			<rect x="196.8" y="279.8" class="st0" width="8.9" height="9"/>
			<rect x="218.6" y="279.8" class="st0" width="9" height="9"/>
			<rect x="240.5" y="279.8" class="st0" width="8.9" height="9"/>
			<rect x="262.3" y="279.9" class="st0" width="9" height="8.9"/>
			<path class="st0" d="M0,271.3h271.3V0H0V271.3z M262.4,262.4H8.9V8.9h253.5V262.4z"/>
		</g>
		<g>
			<path class="st0" d="M937.7,272.8c-1,0-2,0.3-2.9,0.8c-1,0.5-1.7,1.3-2.2,2.2c-0.5,0.9-0.8,2-0.8,3c0,1,0.3,2,0.8,3
				c0.5,0.9,1.3,1.7,2.2,2.2c0.9,0.5,1.9,0.8,3,0.8c1,0,2-0.2,3-0.8c1-0.5,1.7-1.3,2.2-2.2c0.5-0.9,0.8-1.9,0.8-3c0-1-0.3-2-0.8-3
				c-0.5-1-1.3-1.7-2.2-2.2C939.7,273,938.7,272.8,937.7,272.8 M937.7,271.6c1.2,0,2.4,0.3,3.5,0.9c1.1,0.6,2,1.5,2.7,2.6
				c0.6,1.2,1,2.4,1,3.6c0,1.2-0.3,2.4-0.9,3.6c-0.7,1.1-1.5,2-2.7,2.7c-1.1,0.6-2.3,0.9-3.6,0.9c-1.2,0-2.4-0.3-3.6-0.9
				c-1.1-0.6-2-1.5-2.7-2.6c-0.6-1.1-0.9-2.3-1-3.6c0-1.2,0.3-2.4,1-3.6c0.7-1.1,1.5-2,2.7-2.6C935.3,271.9,936.5,271.6,937.7,271.6
				"/>
			<path class="st0" d="M935.8,278.4l1.5,0c0.7,0,1.2-0.1,1.5-0.3c0.3-0.2,0.4-0.5,0.4-0.9c0-0.2,0-0.4-0.2-0.6
				c-0.1-0.2-0.3-0.3-0.6-0.4c-0.2-0.1-0.6-0.1-1.3-0.1h-1.4V278.4z M934.6,282.7l0-7.7l2.6,0c0.9,0,1.6,0.1,2,0.2
				c0.4,0.1,0.7,0.4,1,0.8c0.2,0.3,0.4,0.7,0.4,1.1c0,0.6-0.2,1-0.6,1.5c-0.4,0.4-0.9,0.6-1.6,0.7c0.3,0.1,0.5,0.2,0.7,0.4
				c0.3,0.3,0.7,0.8,1.1,1.5l1,1.5l-1.5,0l-0.7-1.2c-0.5-0.9-1-1.5-1.3-1.8c-0.2-0.2-0.6-0.3-1-0.3h-0.7v3.3L934.6,282.7z"/>
		</g>
		<g>
			<path class="st0" d="M330.8,263.9v5.4c-3.6,2-7.7,2.9-12.4,2.9c-3.8,0-7.1-0.8-9.7-2.3c-2.7-1.5-4.8-3.6-6.3-6.3
				c-1.5-2.7-2.3-5.6-2.3-8.7c0-5,1.8-9.2,5.3-12.6c3.5-3.4,7.9-5.1,13.1-5.1c3.6,0,7.6,0.9,12,2.8v5.3c-4-2.3-7.9-3.4-11.7-3.4
				c-3.9,0-7.2,1.2-9.8,3.7c-2.6,2.5-3.9,5.6-3.9,9.3c0,3.8,1.3,6.8,3.8,9.2c2.5,2.4,5.8,3.6,9.8,3.6
				C322.8,267.7,326.8,266.4,330.8,263.9z"/>
			<path class="st0" d="M357.7,237.1c5.3,0,9.7,1.7,13.2,5c3.5,3.3,5.3,7.5,5.3,12.6c0,5-1.8,9.2-5.3,12.5c-3.5,3.3-8,5-13.4,5
				c-5.2,0-9.4-1.7-12.9-5c-3.4-3.3-5.1-7.4-5.1-12.4c0-5.1,1.7-9.3,5.2-12.7C348.1,238.8,352.5,237.1,357.7,237.1z M357.9,241.8
				c-3.9,0-7.1,1.2-9.6,3.7c-2.5,2.4-3.8,5.6-3.8,9.4c0,3.7,1.3,6.8,3.8,9.2c2.5,2.4,5.7,3.7,9.5,3.7c3.8,0,7-1.2,9.5-3.7
				c2.6-2.5,3.8-5.6,3.8-9.3c0-3.6-1.3-6.7-3.8-9.1S361.7,241.8,357.9,241.8z"/>
			<path class="st0" d="M413.6,237.6h4.6v34.2h-4.9v-26.6l-10.5,13.2h-0.9l-10.6-13.2v26.6h-4.9v-34.2h4.6l11.4,14L413.6,237.6z"/>
			<path class="st0" d="M429.4,271.8v-34.2h10.8c3.3,0,5.9,0.9,7.8,2.6c1.9,1.8,2.9,4.1,2.9,7.1c0,2-0.5,3.8-1.5,5.3
				c-1,1.5-2.4,2.6-4.1,3.3c-1.7,0.7-4.2,1-7.4,1h-3.6v14.8H429.4z M439.4,241.9h-5.1v10.7h5.4c2,0,3.5-0.5,4.6-1.4
				c1.1-0.9,1.6-2.3,1.6-4C445.9,243.7,443.7,241.9,439.4,241.9z"/>
			<path class="st0" d="M466.3,237.4h3.4l15.3,34.4h-5l-4.6-10.1h-14.6l-4.3,10.1h-5L466.3,237.4z M473.5,257.3L468,245l-5.1,12.4
				H473.5z"/>
			<path class="st0" d="M520.1,237.6h4.6v34.2h-4.2l-22.9-26.3v26.3h-4.6v-34.2h4l23.1,26.6V237.6z M516.7,228.3
				c0,2-0.5,3.5-1.4,4.6c-0.7,0.9-1.5,1.3-2.6,1.3c-0.9,0-2.1-0.3-3.6-1c-1.5-0.7-2.7-1-3.4-1c-0.4,0-0.8,0.2-1.1,0.5
				c-0.3,0.3-0.5,0.8-0.6,1.5H502c0.3-2.3,0.7-3.8,1.4-4.6c0.7-0.8,1.5-1.2,2.6-1.2c0.9,0,2.5,0.4,4.6,1.3c1.1,0.4,1.9,0.7,2.3,0.7
				c0.5,0,0.8-0.2,1.2-0.5c0.3-0.3,0.5-0.9,0.6-1.6H516.7z"/>
			<path class="st0" d="M536.3,237.6h4.9v34.2h-4.9V237.6z M545.6,227.8l-5.5,7.3h-2.7l3.3-7.3H545.6z"/>
			<path class="st0" d="M563.8,237.4h3.4l15.3,34.4h-5l-4.6-10.1h-14.6l-4.3,10.1h-5L563.8,237.4z M571,257.3l-5.5-12.4l-5.1,12.4
				H571z"/>
			<path class="st0" d="M608.6,271.8v-34.1h11.5c4.6,0,8.3,0.7,11,2.1c2.7,1.4,4.9,3.4,6.5,6.2c1.6,2.7,2.4,5.7,2.4,8.9
				c0,2.3-0.4,4.5-1.3,6.6c-0.9,2.1-2.1,3.9-3.8,5.5c-1.7,1.6-3.6,2.9-5.8,3.7c-1.3,0.5-2.5,0.8-3.5,1c-1.1,0.2-3.1,0.3-6.2,0.3
				H608.6z M619.7,242h-6.1v25.4h6.3c2.4,0,4.3-0.2,5.7-0.5c1.4-0.3,2.5-0.8,3.4-1.3c0.9-0.5,1.7-1.1,2.5-1.9
				c2.4-2.4,3.6-5.5,3.6-9.3c0-3.7-1.2-6.7-3.7-9c-0.9-0.9-2-1.6-3.1-2.1c-1.2-0.6-2.3-0.9-3.4-1.1C623.7,242.1,622,242,619.7,242z"
				/>
			<path class="st0" d="M650.3,237.6h19.4v4.4h-14.5v10.4h14v4.4h-14v10.6h15v4.4h-19.8V237.6z"/>
			<path class="st0" d="M706.1,257.5l-3.7-2.3c-2.3-1.4-4-2.8-5-4.2c-1-1.4-1.5-3-1.5-4.8c0-2.7,0.9-4.9,2.8-6.6
				c1.9-1.7,4.3-2.5,7.3-2.5c2.9,0,5.5,0.8,7.9,2.4v5.6c-2.5-2.4-5.1-3.6-8-3.6c-1.6,0-2.9,0.4-3.9,1.1c-1,0.7-1.5,1.7-1.5,2.8
				c0,1,0.4,2,1.1,2.9c0.8,0.9,2,1.8,3.7,2.8l3.7,2.2c4.2,2.5,6.3,5.7,6.3,9.5c0,2.7-0.9,5-2.8,6.7c-1.8,1.7-4.2,2.6-7.2,2.6
				c-3.4,0-6.5-1-9.2-3.1v-6.2c2.6,3.4,5.7,5,9.2,5c1.5,0,2.8-0.4,3.8-1.3c1-0.9,1.5-1.9,1.5-3.2
				C710.6,261.3,709.1,259.4,706.1,257.5z"/>
			<path class="st0" d="M724.8,237.6h19.4v4.4h-14.5v10.4h14v4.4h-14v10.6h15v4.4h-19.8V237.6z"/>
			<path class="st0" d="M772.4,255h11.5v14.5c-4.2,1.8-8.4,2.7-12.5,2.7c-5.7,0-10.2-1.7-13.6-5c-3.4-3.3-5.1-7.4-5.1-12.2
				c0-5.1,1.8-9.4,5.3-12.7c3.5-3.4,7.9-5.1,13.2-5.1c1.9,0,3.8,0.2,5.5,0.6c1.7,0.4,3.9,1.2,6.6,2.3v5c-4.1-2.4-8.1-3.5-12.1-3.5
				c-3.7,0-6.9,1.3-9.4,3.8c-2.6,2.5-3.8,5.7-3.8,9.4c0,3.9,1.3,7.1,3.8,9.5c2.6,2.5,5.9,3.7,9.9,3.7c2,0,4.3-0.4,7-1.3l0.5-0.1
				v-7.1h-6.6V255z"/>
			<path class="st0" d="M819,237.6h4.9V257c0,2.6-0.2,4.6-0.6,5.9c-0.4,1.3-0.9,2.5-1.4,3.3c-0.6,0.9-1.3,1.7-2.1,2.4
				c-2.7,2.3-6.2,3.5-10.6,3.5c-4.5,0-8-1.2-10.7-3.5c-0.8-0.7-1.5-1.5-2.1-2.4c-0.6-0.9-1-2-1.4-3.3c-0.4-1.3-0.5-3.3-0.5-6.1
				v-19.4h4.9V257c0,3.2,0.4,5.4,1.1,6.7c0.7,1.3,1.9,2.3,3.4,3c1.5,0.8,3.3,1.1,5.3,1.1c2.9,0,5.3-0.8,7.1-2.3
				c1-0.8,1.7-1.8,2.1-2.9c0.4-1.1,0.6-3,0.6-5.7V237.6z"/>
			<path class="st0" d="M835,271.8v-34.2h8.6c3.5,0,6.2,0.9,8.2,2.6c2,1.7,3,4,3,7c0,2-0.5,3.7-1.5,5.2c-1,1.5-2.4,2.5-4.3,3.3
				c1.1,0.7,2.2,1.7,3.2,2.9s2.5,3.4,4.4,6.5c1.2,1.9,2.1,3.4,2.9,4.4l1.8,2.4h-5.8l-1.5-2.3c0-0.1-0.1-0.2-0.3-0.4l-1-1.3l-1.5-2.5
				l-1.6-2.7c-1-1.4-1.9-2.5-2.8-3.4c-0.8-0.8-1.6-1.4-2.3-1.8c-0.7-0.4-1.8-0.6-3.4-0.6h-1.3v14.9H835z M841.4,241.8h-1.5v10.8h1.9
				c2.5,0,4.2-0.2,5.1-0.6c0.9-0.4,1.6-1.1,2.2-1.9c0.5-0.9,0.8-1.8,0.8-2.9c0-1.1-0.3-2.1-0.9-2.9c-0.6-0.9-1.4-1.5-2.4-1.8
				C845.5,242,843.8,241.8,841.4,241.8z"/>
			<path class="st0" d="M883.1,237.1c5.3,0,9.7,1.7,13.2,5c3.5,3.3,5.3,7.5,5.3,12.6c0,5-1.8,9.2-5.3,12.5c-3.5,3.3-8,5-13.4,5
				c-5.2,0-9.4-1.7-12.9-5c-3.4-3.3-5.1-7.4-5.1-12.4c0-5.1,1.7-9.3,5.2-12.7C873.4,238.8,877.8,237.1,883.1,237.1z M883.3,241.8
				c-3.9,0-7.1,1.2-9.6,3.7c-2.5,2.4-3.8,5.6-3.8,9.4c0,3.7,1.3,6.8,3.8,9.2c2.5,2.4,5.7,3.7,9.5,3.7c3.8,0,7-1.2,9.5-3.7
				c2.5-2.5,3.8-5.6,3.8-9.3c0-3.6-1.3-6.7-3.8-9.1C890.1,243,887,241.8,883.3,241.8z"/>
			<path class="st0" d="M920.2,257.5l-3.7-2.3c-2.3-1.4-4-2.8-5-4.2c-1-1.4-1.5-3-1.5-4.8c0-2.7,0.9-4.9,2.8-6.6
				c1.9-1.7,4.3-2.5,7.3-2.5c2.9,0,5.5,0.8,7.9,2.4v5.6c-2.5-2.4-5.1-3.6-8-3.6c-1.6,0-2.9,0.4-3.9,1.1c-1,0.7-1.5,1.7-1.5,2.8
				c0,1,0.4,2,1.1,2.9c0.8,0.9,2,1.8,3.7,2.8l3.7,2.2c4.2,2.5,6.3,5.7,6.3,9.5c0,2.7-0.9,5-2.8,6.7c-1.8,1.7-4.2,2.6-7.2,2.6
				c-3.4,0-6.5-1-9.2-3.1v-6.2c2.6,3.4,5.7,5,9.2,5c1.5,0,2.8-0.4,3.8-1.3c1-0.9,1.5-1.9,1.5-3.2
				C924.7,261.3,923.2,259.4,920.2,257.5z"/>
		</g>
		<g>
			<path class="st0" d="M441.6,191.2l-19.7,19.1c-6.1-0.3-12.6-1.4-19.2-3.3c-6.7-1.9-13.5-4.4-20.4-7.7
				c-6.9-3.3-16.1-8.9-27.6-16.8c-16.7-3-30.4-10.9-41.2-23.7c-10.8-12.8-16.2-27.6-16.2-44.3c0-20.4,7-37.4,20.9-50.8
				c13.9-13.4,31.5-20.1,52.8-20.1c21.2,0,38.7,6.7,52.7,19.9c14,13.3,21,30,21,50.1c0,16.9-5.3,31.8-15.9,44.6
				c-10.6,12.8-24.3,20.9-41,24.2l5.2,2c16.1,6.2,27.7,9.3,34.9,9.3C431.8,193.9,436.4,193,441.6,191.2z M371,62.4
				c-15.4,0-28.1,5-38.2,14.9c-10.1,9.9-15.1,22.4-15.1,37.5c0,14.7,5.1,26.9,15.2,36.7c10.1,9.8,22.8,14.6,38.1,14.6
				c15.1,0,27.8-5,38.1-15c10.3-10,15.5-22.3,15.5-36.9c0-15-5.1-27.3-15.2-37.1C399.3,67.3,386.5,62.4,371,62.4z"/>
			<path class="st0" d="M518.2,182.6V171c-3.8,4.1-8.1,7.4-13,9.7c-4.9,2.3-9.7,3.5-14.6,3.5c-5.7,0-10.9-1.4-15.7-4.3
				c-4.8-2.8-8.4-6.7-10.9-11.6c-2.5-4.9-3.7-13-3.7-24.3V92.4h17.8v51.4c0,9.5,1.4,16.1,4.1,19.8c2.7,3.8,7.5,5.6,14.3,5.6
				c8.5,0,15.7-4.1,21.7-12.4V92.4H536v90.2H518.2z"/>
			<path class="st0" d="M619.9,128.4v38.3c0,3.1,1,4.6,3.1,4.6c2.2,0,5.5-1.6,10.1-4.8v10.9c-4.1,2.6-7.3,4.4-9.7,5.3
				c-2.5,0.9-5,1.4-7.7,1.4c-7.6,0-12.2-3-13.5-9c-7.6,5.9-15.6,8.8-24.2,8.8c-6.3,0-11.5-2.1-15.7-6.2c-4.2-4.2-6.3-9.4-6.3-15.6
				c0-5.7,2-10.8,6.1-15.2c4.1-4.5,9.9-8,17.4-10.6l22.8-7.8v-4.8c0-10.8-5.4-16.3-16.3-16.3c-9.7,0-19.2,5-28.4,15.1v-19.5
				c6.9-8.2,16.9-12.2,29.9-12.2c9.7,0,17.5,2.5,23.4,7.6c2,1.6,3.7,3.8,5.3,6.5c1.6,2.7,2.6,5.4,3,8.1
				C619.7,115.7,619.9,120.8,619.9,128.4z M602.3,164.8V138l-12,4.6c-6.1,2.4-10.4,4.8-12.9,7.3c-2.5,2.4-3.8,5.5-3.8,9.2
				c0,3.7,1.2,6.8,3.6,9.1c2.4,2.4,5.5,3.5,9.3,3.5C592.3,171.7,597.5,169.4,602.3,164.8z M615.4,43.5l-22.1,29.4h-11l13.2-29.4
				C595.5,43.5,615.4,43.5,615.4,43.5z"/>
			<path class="st0" d="M646,45.7h17.8v136.9H646V45.7z"/>
			<path class="st0" d="M700.9,54.5c2.9,0,5.5,1,7.5,3c2.1,2,3.1,4.5,3.1,7.4c0,2.9-1,5.4-3.1,7.4c-2.1,2.1-4.6,3.1-7.5,3.1
				c-2.7,0-5.2-1.1-7.3-3.2c-2.1-2.1-3.1-4.6-3.1-7.4c0-2.7,1-5.2,3.1-7.3C695.7,55.6,698.2,54.5,700.9,54.5z M692.1,92.4h17.8v90.2
				h-17.8V92.4z"/>
			<path class="st0" d="M723.1,106.8l33.5-32.9v18.6h28.5v16.1h-28.5v44.1c0,10.3,4.3,15.5,12.8,15.5c6.4,0,13.2-2.1,20.3-6.4v16.7
				c-6.9,3.9-14.3,5.8-22.4,5.8c-8.2,0-15-2.4-20.4-7.2c-1.7-1.4-3.1-3.1-4.2-4.8c-1.1-1.8-2-4.1-2.8-7.1c-0.8-2.9-1.1-8.4-1.1-16.6
				v-40h-15.7V106.8z"/>
			<path class="st0" d="M862.7,128.4v38.3c0,3.1,1,4.6,3.1,4.6c2.2,0,5.5-1.6,10.1-4.8v10.9c-4.1,2.6-7.3,4.4-9.7,5.3
				c-2.5,0.9-5,1.4-7.7,1.4c-7.6,0-12.2-3-13.5-9c-7.6,5.9-15.6,8.8-24.2,8.8c-6.3,0-11.5-2.1-15.7-6.2c-4.2-4.2-6.3-9.4-6.3-15.6
				c0-5.7,2-10.8,6.1-15.2c4.1-4.5,9.9-8,17.4-10.6l22.8-7.8v-4.8c0-10.8-5.4-16.3-16.3-16.3c-9.7,0-19.2,5-28.4,15.1v-19.5
				c6.9-8.2,16.9-12.2,29.9-12.2c9.7,0,17.5,2.5,23.4,7.6c2,1.6,3.7,3.8,5.3,6.5c1.6,2.7,2.6,5.4,3,8.1
				C862.5,115.7,862.7,120.8,862.7,128.4z M845.2,164.8V138l-12,4.6c-6.1,2.4-10.4,4.8-12.9,7.3c-2.5,2.4-3.8,5.5-3.8,9.2
				c0,3.7,1.2,6.8,3.6,9.1c2.4,2.4,5.5,3.5,9.3,3.5C835.1,171.7,840.3,169.4,845.2,164.8z"/>
			<path class="st0" d="M884.6,176.1v-19.2c5,3.5,10.2,6.4,15.4,8.6c5.3,2.2,9.7,3.3,13.3,3.3c3.7,0,6.9-0.9,9.6-2.7
				c2.7-1.8,4-4,4-6.6c0-2.6-0.9-4.8-2.6-6.5c-1.7-1.7-5.5-4.2-11.2-7.5c-11.5-6.4-19-11.9-22.6-16.4c-3.6-4.5-5.3-9.5-5.3-14.8
				c0-6.9,2.7-12.6,8.1-17c5.4-4.4,12.3-6.6,20.8-6.6c8.8,0,17.9,2.5,27.1,7.4v17.6c-10.6-6.4-19.2-9.6-26-9.6
				c-3.5,0-6.3,0.7-8.4,2.2c-2.1,1.5-3.2,3.4-3.2,5.8c0,2.1,1,4.1,2.9,6c1.9,1.9,5.3,4.2,10.1,6.9l6.4,3.6
				c15,8.5,22.5,17.9,22.5,28.2c0,7.4-2.9,13.4-8.7,18.2c-5.8,4.7-13.2,7.1-22.3,7.1c-5.4,0-10.1-0.6-14.3-1.7
				C896.2,181.3,891,179.2,884.6,176.1z"/>
		</g>
	</g>
</g>
</svg>
